digraph {
  rankdir = LR
  node[shape=circle style=filled label="" fontname=helvetica]
  edge[fontname=helvetica]

  i_gen1, c_gen1, p_gen1

  // row 1
  i_gen1 -> i_gen2[label="20 trials"]
  i_gen2 -> i_gen3[label="isolated"]
  i_gen3 -> i_gen4[style=invis]

  // row 2
  c_gen1 -> c_gen2[style=invis]
  c_gen2 -> c_gen3[label="congruent"]
  c_gen3 -> c_gen4[label="                 "]

  // row 3
  p_gen1 -> p_gen2[style=invis]
  p_gen2 -> p_gen3[label="complementary"]
  p_gen3 -> p_gen4

  i_gen2 -> c_gen2[constraint=false dir=none style="dotted"]
  c_gen2 -> p_gen2[constraint=false dir=none style="dotted"]

  // invisible nodes
  i_gen2, i_gen3, i_gen4, c_gen1, c_gen3, c_gen4, p_gen1, p_gen3, p_gen4[style=invis width=0]

  i_gen1[label="G1" fillcolor="#FC8D62" color="#FC8D62"]
  c_gen2[label="G2" fillcolor="#66C2A5" color="#66C2A5"]
  p_gen2[label="G2" fillcolor="#8DA0CB" color="#8DA0CB"]
}
