simulation_type,subj_id,sight_radius,n_gabors,block_ix,landscape_name,starting_pos,starting_score,trial,pos,stims,selected,score,delta
optimal,random_robot_26,10,6,1,SimpleHill,0-0,0,0,0-0,5-7;1-1;3-5;6-6;8-6;2-7,8-6,26,26
optimal,random_robot_26,10,6,1,SimpleHill,0-0,0,1,8-6,16-12;10-8;10-0;4-12;2-14;6-11,16-12,48,22
optimal,random_robot_26,10,6,1,SimpleHill,0-0,0,2,16-12,22-13;8-9;23-7;12-7;13-20;14-17,22-13,56,8
optimal,random_robot_26,10,6,1,SimpleHill,0-0,0,3,22-13,19-20;17-8;19-17;25-8;19-22;14-13,19-22,65,9
optimal,random_robot_26,10,6,1,SimpleHill,0-0,0,4,19-22,26-27;17-31;17-26;16-22;15-16;16-15,26-27,77,12
optimal,random_robot_26,10,6,1,SimpleHill,0-0,0,5,26-27,19-28;31-31;26-18;24-26;22-31;21-26,31-31,85,8
optimal,random_robot_26,10,6,1,SimpleHill,0-0,0,6,31-31,32-30;34-35;34-29;37-33;31-36;22-31,34-35,90,5
optimal,random_robot_26,10,6,1,SimpleHill,0-0,0,7,34-35,32-43;40-37;30-26;34-37;41-33;40-31,40-37,94,4
optimal,random_robot_26,10,6,1,SimpleHill,0-0,0,8,40-37,34-45;44-28;37-35;48-43;45-34;33-32,48-43,98,4
optimal,random_robot_26,10,6,1,SimpleHill,0-0,0,9,48-43,55-46;58-43;53-38;51-47;38-43;48-36,55-46,99,1
optimal,random_robot_26,10,6,1,SimpleHill,0-0,0,10,55-46,49-41;51-40;46-47;48-46;54-47;52-44,46-47,99,0
optimal,random_robot_26,10,6,1,SimpleHill,0-0,0,11,46-47,46-52;39-46;43-49;43-43;47-38;50-40,46-52,99,0
optimal,random_robot_26,10,6,1,SimpleHill,0-0,0,12,46-52,55-56;50-43;42-58;50-54;55-54;48-44,48-44,99,0
optimal,random_robot_26,10,6,1,SimpleHill,0-0,0,13,48-44,47-37;52-51;42-40;46-47;44-38;42-49,46-47,99,0
optimal,random_robot_26,10,6,1,SimpleHill,0-0,0,14,46-47,53-42;52-51;50-56;44-48;37-50;38-53,44-48,99,0
optimal,random_robot_26,10,6,1,SimpleHill,0-0,0,15,44-48,41-47;45-57;39-53;46-45;42-39;42-48,46-45,99,0
optimal,random_robot_26,10,6,1,SimpleHill,0-0,0,16,46-45,49-51;43-41;49-42;54-46;42-46;44-38,49-51,99,0
optimal,random_robot_26,10,6,1,SimpleHill,0-0,0,17,49-51,44-59;54-47;49-51;43-55;48-45;58-52,48-45,99,0
optimal,random_robot_26,10,6,1,SimpleHill,0-0,0,18,48-45,44-39;41-48;48-48;52-38;41-46;52-36,48-48,99,0
optimal,random_robot_26,10,6,1,SimpleHill,0-0,0,19,48-48,53-49;46-47;51-46;49-56;56-54;48-46,53-49,99,0
optimal,random_robot_26,10,6,1,SimpleHill,0-0,0,20,53-49,50-54;50-49;56-53;60-47;56-56;58-45,50-54,99,0
optimal,random_robot_26,10,6,1,SimpleHill,0-0,0,21,50-54,46-60;50-51;47-55;54-60;41-55;57-56,47-55,99,0
optimal,random_robot_26,10,6,1,SimpleHill,0-0,0,22,47-55,54-62;42-50;47-65;43-57;47-57;40-50,40-50,98,-1
optimal,random_robot_26,10,6,1,SimpleHill,0-0,0,23,40-50,31-49;42-59;38-52;46-49;37-55;43-56,46-49,99,1
optimal,random_robot_26,10,6,1,SimpleHill,0-0,0,24,46-49,52-55;39-54;47-50;51-43;42-45;43-45,52-55,99,0
optimal,random_robot_26,10,6,1,SimpleHill,0-0,0,25,52-55,57-63;47-55;43-55;50-63;43-53;54-47,47-55,99,0
optimal,random_robot_26,10,6,1,SimpleHill,0-0,0,26,47-55,50-46;50-47;41-61;52-63;47-51;52-53,50-46,99,0
optimal,random_robot_26,10,6,1,SimpleHill,0-0,0,27,50-46,41-47;53-51;52-40;57-49;44-50;55-44,44-50,99,0
optimal,random_robot_26,10,6,1,SimpleHill,0-0,0,28,44-50,43-58;44-43;39-52;48-57;44-40;47-44,47-44,99,0
optimal,random_robot_26,10,6,1,SimpleHill,0-0,0,29,47-44,45-38;45-47;43-46;55-43;47-45;47-48,45-47,99,0
optimal,random_robot_26,10,6,1,SimpleHill,0-0,0,30,45-47,36-49;51-40;44-50;39-54;52-49;48-54,44-50,99,0
optimal,random_robot_26,10,6,1,SimpleHill,0-0,0,31,44-50,45-52;50-58;41-42;41-51;35-50;45-48,45-52,99,0
optimal,random_robot_26,10,6,1,SimpleHill,0-0,0,32,45-52,46-49;48-52;36-48;43-43;53-55;43-58,46-49,99,0
optimal,random_robot_26,10,6,1,SimpleHill,0-0,0,33,46-49,55-51;52-42;54-55;48-46;44-47;52-50,55-51,99,0
optimal,random_robot_26,10,6,1,SimpleHill,0-0,0,34,55-51,61-56;50-53;57-46;48-52;53-57;62-58,48-52,99,0
optimal,random_robot_26,10,6,1,SimpleHill,0-0,0,35,48-52,50-52;40-50;56-47;53-54;54-47;50-47,50-52,99,0
optimal,random_robot_26,10,6,1,SimpleHill,0-0,0,36,50-52,55-50;54-51;54-53;40-52;44-54;50-56,55-50,99,0
optimal,random_robot_26,10,6,1,SimpleHill,0-0,0,37,55-50,53-56;58-51;53-42;53-52;46-46;47-52,53-56,99,0
optimal,random_robot_26,10,6,1,SimpleHill,0-0,0,38,53-56,58-51;47-60;44-59;58-62;46-62;58-50,58-51,98,-1
optimal,random_robot_26,10,6,1,SimpleHill,0-0,0,39,58-51,53-51;55-47;64-46;63-53;57-42;62-59,53-51,99,1
optimal,random_robot_26,10,6,1,SimpleHill,0-0,0,40,53-51,56-53;61-47;51-46;55-57;45-50;61-46,56-53,99,0
optimal,random_robot_26,10,6,1,SimpleHill,0-0,0,41,56-53,49-54;57-45;51-58;57-48;56-53;49-59,49-54,99,0
optimal,random_robot_26,10,6,1,SimpleHill,0-0,0,42,49-54,54-61;48-49;47-47;56-52;45-56;51-45,47-47,99,0
optimal,random_robot_26,10,6,1,SimpleHill,0-0,0,43,47-47,54-44;55-52;39-48;44-54;53-39;38-46,55-52,99,0
optimal,random_robot_26,10,6,1,SimpleHill,0-0,0,44,55-52,63-54;51-52;53-56;55-48;61-48;56-57,51-52,99,0
optimal,random_robot_26,10,6,1,SimpleHill,0-0,0,45,51-52,48-60;42-49;46-53;49-53;50-52;57-45,46-53,99,0
optimal,random_robot_26,10,6,1,SimpleHill,0-0,0,46,46-53,38-58;41-54;39-50;37-56;46-49;47-49,46-49,99,0
optimal,random_robot_26,10,6,1,SimpleHill,0-0,0,47,46-49,42-41;40-44;49-47;37-53;39-47;53-45,49-47,99,0
optimal,random_robot_26,10,6,1,SimpleHill,0-0,0,48,49-47,47-53;52-47;54-41;52-45;51-56;41-41,47-53,99,0
optimal,random_robot_26,10,6,1,SimpleHill,0-0,0,49,47-53,50-49;56-51;38-52;48-49;45-59;47-52,50-49,99,0
optimal,random_robot_26,10,6,1,SimpleHill,0-0,0,50,50-49,50-42;41-50;56-53;58-54;47-53;57-45,47-53,99,0
optimal,random_robot_26,10,6,1,SimpleHill,0-0,0,51,47-53,42-53;53-51;49-47;47-44;42-54;51-46,47-44,99,0
optimal,random_robot_26,10,6,1,SimpleHill,0-0,0,52,47-44,52-43;45-39;38-45;52-46;40-40;48-41,52-46,99,0
optimal,random_robot_26,10,6,1,SimpleHill,0-0,0,53,52-46,47-41;45-42;48-44;50-55;53-51;46-47,46-47,99,0
optimal,random_robot_26,10,6,1,SimpleHill,0-0,0,54,46-47,42-42;54-41;53-45;41-53;40-48;46-48,46-48,99,0
optimal,random_robot_26,10,6,1,SimpleHill,0-0,0,55,46-48,40-55;52-43;41-46;44-54;43-40;48-47,48-47,99,0
optimal,random_robot_26,10,6,1,SimpleHill,0-0,0,56,48-47,42-46;40-53;47-51;51-45;57-46;46-42,47-51,99,0
optimal,random_robot_26,10,6,1,SimpleHill,0-0,0,57,47-51,48-44;51-50;46-51;40-53;46-52;45-44,48-44,99,0
optimal,random_robot_26,10,6,1,SimpleHill,0-0,0,58,48-44,41-48;43-36;52-42;45-39;52-36;46-35,41-48,98,-1
optimal,random_robot_26,10,6,1,SimpleHill,0-0,0,59,41-48,38-50;49-49;42-47;39-54;36-41;33-52,49-49,99,1
optimal,random_robot_26,10,6,1,SimpleHill,0-0,0,60,49-49,49-56;53-52;54-54;41-47;43-43;49-45,49-56,99,0
optimal,random_robot_26,10,6,1,SimpleHill,0-0,0,61,49-56,56-58;57-56;41-61;47-62;59-56;50-65,56-58,98,-1
optimal,random_robot_26,10,6,1,SimpleHill,0-0,0,62,56-58,52-62;53-57;54-62;56-60;47-58;65-60,47-58,98,0
optimal,random_robot_26,10,6,1,SimpleHill,0-0,0,63,47-58,51-53;53-63;46-53;41-57;48-67;50-65,51-53,99,1
optimal,random_robot_26,10,6,1,SimpleHill,0-0,0,64,51-53,46-47;53-49;51-47;56-46;52-58;45-61,46-47,99,0
optimal,random_robot_26,10,6,1,SimpleHill,0-0,0,65,46-47,50-49;41-39;37-47;38-44;52-47;46-51,50-49,99,0
optimal,random_robot_26,10,6,1,SimpleHill,0-0,0,66,50-49,50-59;47-54;55-55;54-54;51-48;43-54,47-54,99,0
optimal,random_robot_26,10,6,1,SimpleHill,0-0,0,67,47-54,55-60;54-59;47-57;53-57;44-51;38-52,44-51,99,0
optimal,random_robot_26,10,6,1,SimpleHill,0-0,0,68,44-51,36-49;44-51;46-47;47-43;38-55;44-54,44-51,99,0
optimal,random_robot_26,10,6,1,SimpleHill,0-0,0,69,44-51,48-57;51-44;50-59;39-55;41-42;47-45,47-45,99,0
optimal,random_robot_26,10,6,1,SimpleHill,0-0,0,70,47-45,42-53;42-39;54-48;55-43;55-40;48-44,48-44,99,0
optimal,random_robot_26,10,6,1,SimpleHill,0-0,0,71,48-44,51-53;46-48;42-37;54-52;53-49;47-49,51-53,99,0
optimal,random_robot_26,10,6,1,SimpleHill,0-0,0,72,51-53,42-54;59-59;47-60;55-61;51-56;55-55,51-56,99,0
optimal,random_robot_26,10,6,1,SimpleHill,0-0,0,73,51-56,46-51;47-65;53-63;49-65;47-64;46-62,46-51,99,0
optimal,random_robot_26,10,6,1,SimpleHill,0-0,0,74,46-51,50-56;42-57;37-53;39-46;54-54;45-58,50-56,99,0
optimal,random_robot_26,10,6,1,SimpleHill,0-0,0,75,50-56,47-58;59-58;52-65;46-52;45-64;49-50,46-52,99,0
optimal,random_robot_26,10,6,1,SimpleHill,0-0,0,76,46-52,47-49;52-51;50-47;42-61;46-42;44-55,47-49,99,0
optimal,random_robot_26,10,6,1,SimpleHill,0-0,0,77,47-49,41-41;39-52;42-55;40-44;47-40;47-47,47-47,99,0
optimal,random_robot_26,10,6,1,SimpleHill,0-0,0,78,47-47,41-47;51-46;47-50;48-52;53-43;50-47,47-50,99,0
optimal,random_robot_26,10,6,1,SimpleHill,0-0,0,79,47-50,41-50;53-46;53-50;53-54;50-58;45-49,45-49,99,0
