simulation_type,subj_id,sight_radius,n_gabors,block_ix,landscape_name,starting_pos,starting_score,trial,pos,stims,selected,score,delta
optimal,random_robot_137,10,6,1,SimpleHill,0-0,0,0,0-0,2-3;3-7;3-4;1-0;0-3;5-8,5-8,24,24
optimal,random_robot_137,10,6,1,SimpleHill,0-0,0,1,5-8,6-8;7-4;1-0;1-17;3-8;9-13,9-13,39,15
optimal,random_robot_137,10,6,1,SimpleHill,0-0,0,2,9-13,11-22;7-18;3-17;18-14;6-17;13-18,11-22,53,14
optimal,random_robot_137,10,6,1,SimpleHill,0-0,0,3,11-22,11-20;4-15;6-30;17-22;14-20;8-21,17-22,62,9
optimal,random_robot_137,10,6,1,SimpleHill,0-0,0,4,17-22,9-26;9-27;14-14;23-19;15-30;25-24,25-24,73,11
optimal,random_robot_137,10,6,1,SimpleHill,0-0,0,5,25-24,17-21;23-21;31-19;33-19;20-18;17-28,33-19,75,2
optimal,random_robot_137,10,6,1,SimpleHill,0-0,0,6,33-19,36-15;34-16;27-13;37-13;34-20;41-16,34-20,76,1
optimal,random_robot_137,10,6,1,SimpleHill,0-0,0,7,34-20,35-11;42-23;25-18;30-16;30-13;27-20,42-23,84,8
optimal,random_robot_137,10,6,1,SimpleHill,0-0,0,8,42-23,40-30;47-23;42-30;32-23;36-24;37-31,40-30,90,6
optimal,random_robot_137,10,6,1,SimpleHill,0-0,0,9,40-30,45-26;31-30;43-30;39-28;41-26;48-30,43-30,91,1
optimal,random_robot_137,10,6,1,SimpleHill,0-0,0,10,43-30,41-36;45-27;38-30;38-22;39-32;41-32,41-36,94,3
optimal,random_robot_137,10,6,1,SimpleHill,0-0,0,11,41-36,49-38;48-30;44-33;40-38;37-30;36-28,49-38,97,3
optimal,random_robot_137,10,6,1,SimpleHill,0-0,0,12,49-38,48-40;47-35;53-30;46-46;54-32;54-37,46-46,99,2
optimal,random_robot_137,10,6,1,SimpleHill,0-0,0,13,46-46,45-51;42-42;53-46;44-54;40-38;51-48,45-51,99,0
optimal,random_robot_137,10,6,1,SimpleHill,0-0,0,14,45-51,49-56;43-55;45-58;47-58;41-57;51-51,49-56,99,0
optimal,random_robot_137,10,6,1,SimpleHill,0-0,0,15,49-56,43-58;41-58;57-60;45-49;55-61;49-48,45-49,99,0
optimal,random_robot_137,10,6,1,SimpleHill,0-0,0,16,45-49,46-54;46-49;46-57;45-39;41-57;50-51,46-54,99,0
optimal,random_robot_137,10,6,1,SimpleHill,0-0,0,17,46-54,43-60;52-54;39-54;52-59;42-62;40-49,52-54,99,0
optimal,random_robot_137,10,6,1,SimpleHill,0-0,0,18,52-54,56-53;61-50;55-54;47-49;53-50;55-62,56-53,99,0
optimal,random_robot_137,10,6,1,SimpleHill,0-0,0,19,56-53,56-61;48-56;61-59;63-50;62-52;49-47,48-56,99,0
optimal,random_robot_137,10,6,1,SimpleHill,0-0,0,20,48-56,43-55;44-56;47-52;53-62;49-49;55-58,47-52,99,0
optimal,random_robot_137,10,6,1,SimpleHill,0-0,0,21,47-52,52-45;52-59;51-48;43-45;46-48;50-47,52-45,99,0
optimal,random_robot_137,10,6,1,SimpleHill,0-0,0,22,52-45,49-40;59-41;53-50;47-51;51-49;48-41,47-51,99,0
optimal,random_robot_137,10,6,1,SimpleHill,0-0,0,23,47-51,54-47;49-50;48-45;45-44;54-50;42-51,54-47,99,0
optimal,random_robot_137,10,6,1,SimpleHill,0-0,0,24,54-47,54-57;56-54;52-40;54-55;47-42;55-39,54-55,99,0
optimal,random_robot_137,10,6,1,SimpleHill,0-0,0,25,54-55,50-47;63-54;55-59;61-49;49-59;48-49,50-47,99,0
optimal,random_robot_137,10,6,1,SimpleHill,0-0,0,26,50-47,44-48;44-39;50-42;56-40;42-46;49-51,44-48,99,0
optimal,random_robot_137,10,6,1,SimpleHill,0-0,0,27,44-48,36-49;43-55;44-47;41-41;39-44;49-40,44-47,99,0
optimal,random_robot_137,10,6,1,SimpleHill,0-0,0,28,44-47,39-46;40-38;42-48;37-51;38-54;46-41,42-48,98,-1
optimal,random_robot_137,10,6,1,SimpleHill,0-0,0,29,42-48,37-54;33-51;35-49;43-46;42-50;42-58,42-50,98,0
optimal,random_robot_137,10,6,1,SimpleHill,0-0,0,30,42-50,45-51;36-52;43-58;41-58;44-52;47-58,45-51,99,1
optimal,random_robot_137,10,6,1,SimpleHill,0-0,0,31,45-51,36-48;37-56;43-48;51-52;47-51;42-58,47-51,99,0
optimal,random_robot_137,10,6,1,SimpleHill,0-0,0,32,47-51,54-57;46-42;47-54;44-56;57-51;43-44,47-54,99,0
optimal,random_robot_137,10,6,1,SimpleHill,0-0,0,33,47-54,42-60;44-60;56-58;50-61;45-62;49-52,49-52,99,0
optimal,random_robot_137,10,6,1,SimpleHill,0-0,0,34,49-52,47-43;44-46;41-53;48-51;48-53;49-60,48-51,99,0
optimal,random_robot_137,10,6,1,SimpleHill,0-0,0,35,48-51,57-53;51-42;48-55;54-44;53-50;51-48,48-55,99,0
optimal,random_robot_137,10,6,1,SimpleHill,0-0,0,36,48-55,45-46;50-61;44-53;56-52;54-56;46-49,45-46,99,0
optimal,random_robot_137,10,6,1,SimpleHill,0-0,0,37,45-46,39-39;54-48;37-40;46-53;54-42;38-39,46-53,99,0
optimal,random_robot_137,10,6,1,SimpleHill,0-0,0,38,46-53,54-59;46-52;42-48;41-58;51-46;53-50,46-52,99,0
optimal,random_robot_137,10,6,1,SimpleHill,0-0,0,39,46-52,40-58;50-52;54-48;45-57;47-47;55-54,47-47,99,0
optimal,random_robot_137,10,6,1,SimpleHill,0-0,0,40,47-47,48-39;49-45;52-42;39-50;46-46;46-48,46-46,99,0
optimal,random_robot_137,10,6,1,SimpleHill,0-0,0,41,46-46,55-47;52-48;39-48;39-43;41-39;51-41,55-47,99,0
optimal,random_robot_137,10,6,1,SimpleHill,0-0,0,42,55-47,60-51;49-43;56-52;48-46;45-47;53-51,45-47,99,0
optimal,random_robot_137,10,6,1,SimpleHill,0-0,0,43,45-47,44-52;36-43;43-46;49-41;48-48;50-51,44-52,99,0
optimal,random_robot_137,10,6,1,SimpleHill,0-0,0,44,44-52,51-58;53-55;36-48;38-59;36-50;48-49,48-49,99,0
optimal,random_robot_137,10,6,1,SimpleHill,0-0,0,45,48-49,45-47;54-41;57-50;51-47;52-48;52-52,45-47,99,0
optimal,random_robot_137,10,6,1,SimpleHill,0-0,0,46,45-47,37-41;49-50;41-42;48-54;51-46;47-53,47-53,99,0
optimal,random_robot_137,10,6,1,SimpleHill,0-0,0,47,47-53,55-52;39-56;50-62;46-62;47-46;53-53,55-52,99,0
optimal,random_robot_137,10,6,1,SimpleHill,0-0,0,48,55-52,60-50;49-54;45-52;58-54;52-43;53-59,45-52,99,0
optimal,random_robot_137,10,6,1,SimpleHill,0-0,0,49,45-52,42-49;54-51;44-49;45-51;47-61;48-54,44-49,99,0
optimal,random_robot_137,10,6,1,SimpleHill,0-0,0,50,44-49,39-42;39-54;35-53;39-53;49-48;38-43,49-48,99,0
optimal,random_robot_137,10,6,1,SimpleHill,0-0,0,51,49-48,45-57;52-44;51-55;52-53;40-44;44-44,51-55,99,0
optimal,random_robot_137,10,6,1,SimpleHill,0-0,0,52,51-55,52-47;58-52;54-52;58-56;59-59;49-63,52-47,99,0
optimal,random_robot_137,10,6,1,SimpleHill,0-0,0,53,52-47,50-48;60-52;44-42;61-43;59-45;59-40,50-48,99,0
optimal,random_robot_137,10,6,1,SimpleHill,0-0,0,54,50-48,50-39;52-45;43-46;42-44;49-51;47-56,47-56,99,0
optimal,random_robot_137,10,6,1,SimpleHill,0-0,0,55,47-56,43-57;54-63;48-48;40-55;38-60;39-52,48-48,99,0
optimal,random_robot_137,10,6,1,SimpleHill,0-0,0,56,48-48,44-40;48-54;56-45;50-41;46-44;53-49,48-54,99,0
optimal,random_robot_137,10,6,1,SimpleHill,0-0,0,57,48-54,53-52;49-63;43-47;55-51;40-56;51-59,53-52,99,0
optimal,random_robot_137,10,6,1,SimpleHill,0-0,0,58,53-52,60-49;53-43;49-50;46-52;55-52;60-58,46-52,99,0
optimal,random_robot_137,10,6,1,SimpleHill,0-0,0,59,46-52,44-54;44-58;50-60;42-61;44-53;51-49,44-53,99,0
optimal,random_robot_137,10,6,1,SimpleHill,0-0,0,60,44-53,50-56;44-51;46-49;47-47;49-46;40-52,50-56,99,0
optimal,random_robot_137,10,6,1,SimpleHill,0-0,0,61,50-56,44-48;47-63;52-54;54-61;45-50;50-62,44-48,99,0
optimal,random_robot_137,10,6,1,SimpleHill,0-0,0,62,44-48,36-44;52-48;47-50;39-41;45-45;49-55,45-45,99,0
optimal,random_robot_137,10,6,1,SimpleHill,0-0,0,63,45-45,47-54;39-38;53-45;37-43;35-45;47-46,47-54,99,0
optimal,random_robot_137,10,6,1,SimpleHill,0-0,0,64,47-54,48-57;51-55;44-51;50-53;56-51;48-51,44-51,99,0
optimal,random_robot_137,10,6,1,SimpleHill,0-0,0,65,44-51,45-42;44-52;35-50;45-52;48-48;36-53,44-52,99,0
optimal,random_robot_137,10,6,1,SimpleHill,0-0,0,66,44-52,35-51;51-58;37-52;40-52;46-59;40-53,46-59,98,-1
optimal,random_robot_137,10,6,1,SimpleHill,0-0,0,67,46-59,53-54;46-53;42-60;48-50;49-60;40-54,53-54,99,1
optimal,random_robot_137,10,6,1,SimpleHill,0-0,0,68,53-54,53-44;47-46;58-47;50-45;57-57;61-54,53-44,99,0
optimal,random_robot_137,10,6,1,SimpleHill,0-0,0,69,53-44,44-41;53-51;60-45;54-53;55-38;53-45,53-45,99,0
optimal,random_robot_137,10,6,1,SimpleHill,0-0,0,70,53-45,57-36;57-52;50-36;58-41;60-51;55-37,57-52,98,-1
optimal,random_robot_137,10,6,1,SimpleHill,0-0,0,71,57-52,53-61;63-50;61-56;53-52;62-54;54-61,53-52,99,1
optimal,random_robot_137,10,6,1,SimpleHill,0-0,0,72,53-52,50-53;54-46;44-51;60-51;57-57;62-52,50-53,99,0
optimal,random_robot_137,10,6,1,SimpleHill,0-0,0,73,50-53,54-46;47-54;46-46;49-46;57-54;54-61,54-46,99,0
optimal,random_robot_137,10,6,1,SimpleHill,0-0,0,74,54-46,51-54;46-48;54-56;56-38;49-39;50-52,51-54,99,0
optimal,random_robot_137,10,6,1,SimpleHill,0-0,0,75,51-54,51-56;55-53;49-60;53-62;52-51;53-54,51-56,99,0
optimal,random_robot_137,10,6,1,SimpleHill,0-0,0,76,51-56,57-57;53-56;58-63;48-61;55-62;48-58,53-56,99,0
optimal,random_robot_137,10,6,1,SimpleHill,0-0,0,77,53-56,46-63;63-56;56-58;53-48;55-62;57-51,53-48,99,0
optimal,random_robot_137,10,6,1,SimpleHill,0-0,0,78,53-48,62-47;46-52;52-48;48-42;48-45;47-56,46-52,99,0
optimal,random_robot_137,10,6,1,SimpleHill,0-0,0,79,46-52,49-61;47-48;42-52;39-56;43-48;45-49,45-49,99,0
