simulation_type,subj_id,sight_radius,n_gabors,block_ix,landscape_name,starting_pos,starting_score,trial,pos,stims,selected,score,delta
optimal,random_robot_174,10,6,1,SimpleHill,0-0,0,0,0-0,1-6;2-2;8-0;2-1;2-4;0-10,0-10,18,18
optimal,random_robot_174,10,6,1,SimpleHill,0-0,0,1,0-10,0-13;6-18;2-18;1-3;3-1;1-18,6-18,40,22
optimal,random_robot_174,10,6,1,SimpleHill,0-0,0,2,6-18,3-20;10-18;0-21;2-14;15-14;3-26,15-14,49,9
optimal,random_robot_174,10,6,1,SimpleHill,0-0,0,3,15-14,21-12;15-22;10-20;7-16;8-14;14-15,15-22,59,10
optimal,random_robot_174,10,6,1,SimpleHill,0-0,0,4,15-22,19-17;15-21;14-23;8-29;22-23;8-28,22-23,69,10
optimal,random_robot_174,10,6,1,SimpleHill,0-0,0,5,22-23,26-27;18-14;25-16;18-26;24-25;17-27,26-27,77,8
optimal,random_robot_174,10,6,1,SimpleHill,0-0,0,6,26-27,20-21;25-33;35-30;27-21;26-21;29-21,35-30,87,10
optimal,random_robot_174,10,6,1,SimpleHill,0-0,0,7,35-30,32-22;29-37;34-35;37-21;39-27;31-34,34-35,90,3
optimal,random_robot_174,10,6,1,SimpleHill,0-0,0,8,34-35,27-38;33-34;37-39;29-27;29-43;34-37,37-39,94,4
optimal,random_robot_174,10,6,1,SimpleHill,0-0,0,9,37-39,41-35;35-33;28-41;29-41;34-47;38-39,34-47,94,0
optimal,random_robot_174,10,6,1,SimpleHill,0-0,0,10,34-47,31-55;36-39;41-46;43-49;35-42;34-57,43-49,99,5
optimal,random_robot_174,10,6,1,SimpleHill,0-0,0,11,43-49,39-57;47-56;42-50;51-55;36-42;38-46,47-56,99,0
optimal,random_robot_174,10,6,1,SimpleHill,0-0,0,12,47-56,48-48;38-55;50-48;38-57;43-55;45-52,48-48,99,0
optimal,random_robot_174,10,6,1,SimpleHill,0-0,0,13,48-48,47-55;42-47;49-43;53-50;49-47;49-57,47-55,99,0
optimal,random_robot_174,10,6,1,SimpleHill,0-0,0,14,47-55,48-64;45-59;52-52;47-64;49-49;39-61,49-49,99,0
optimal,random_robot_174,10,6,1,SimpleHill,0-0,0,15,49-49,51-48;58-47;48-57;56-42;43-55;53-56,51-48,99,0
optimal,random_robot_174,10,6,1,SimpleHill,0-0,0,16,51-48,50-56;50-49;57-42;58-44;53-43;47-57,50-56,99,0
optimal,random_robot_174,10,6,1,SimpleHill,0-0,0,17,50-56,56-57;42-60;46-56;48-62;54-58;57-62,56-57,98,-1
optimal,random_robot_174,10,6,1,SimpleHill,0-0,0,18,56-57,48-60;55-64;65-61;56-57;56-58;57-50,57-50,99,1
optimal,random_robot_174,10,6,1,SimpleHill,0-0,0,19,57-50,54-46;54-56;66-47;58-44;63-44;55-47,54-46,99,0
optimal,random_robot_174,10,6,1,SimpleHill,0-0,0,20,54-46,54-36;53-50;47-49;48-48;54-49;59-50,47-49,99,0
optimal,random_robot_174,10,6,1,SimpleHill,0-0,0,21,47-49,43-50;52-42;45-48;45-52;43-57;52-43,43-50,99,0
optimal,random_robot_174,10,6,1,SimpleHill,0-0,0,22,43-50,46-43;35-46;48-46;36-57;38-46;48-48,48-46,99,0
optimal,random_robot_174,10,6,1,SimpleHill,0-0,0,23,48-46,40-48;54-42;49-42;45-47;53-51;44-42,45-47,99,0
optimal,random_robot_174,10,6,1,SimpleHill,0-0,0,24,45-47,37-48;42-46;46-49;47-54;52-43;50-40,46-49,99,0
optimal,random_robot_174,10,6,1,SimpleHill,0-0,0,25,46-49,43-40;46-39;48-56;49-55;38-51;45-56,48-56,99,0
optimal,random_robot_174,10,6,1,SimpleHill,0-0,0,26,48-56,46-54;48-47;42-51;43-62;52-52;45-47,46-54,99,0
optimal,random_robot_174,10,6,1,SimpleHill,0-0,0,27,46-54,43-62;51-61;44-46;55-54;48-45;40-52,48-45,99,0
optimal,random_robot_174,10,6,1,SimpleHill,0-0,0,28,48-45,47-43;45-51;41-44;48-50;48-35;41-41,45-51,99,0
optimal,random_robot_174,10,6,1,SimpleHill,0-0,0,29,45-51,42-43;41-42;49-55;52-53;44-60;46-48,46-48,99,0
optimal,random_robot_174,10,6,1,SimpleHill,0-0,0,30,46-48,38-49;38-54;48-52;53-47;48-45;47-49,47-49,99,0
optimal,random_robot_174,10,6,1,SimpleHill,0-0,0,31,47-49,45-51;46-47;47-53;48-47;48-55;40-46,45-51,99,0
optimal,random_robot_174,10,6,1,SimpleHill,0-0,0,32,45-51,51-55;43-49;37-48;40-47;42-44;46-60,51-55,99,0
optimal,random_robot_174,10,6,1,SimpleHill,0-0,0,33,51-55,48-64;50-50;55-58;43-60;53-62;55-61,50-50,100,1
optimal,random_robot_174,10,6,1,SimpleHill,0-0,0,34,50-50,46-45;51-56;51-46;49-44;48-51;50-58,46-45,99,-1
optimal,random_robot_174,10,6,1,SimpleHill,0-0,0,35,46-45,40-52;48-47;43-46;41-37;51-53;49-45,48-47,99,0
optimal,random_robot_174,10,6,1,SimpleHill,0-0,0,36,48-47,42-42;50-41;40-41;46-55;48-43;55-45,46-55,99,0
optimal,random_robot_174,10,6,1,SimpleHill,0-0,0,37,46-55,42-51;43-56;48-57;43-51;54-55;45-56,43-51,99,0
optimal,random_robot_174,10,6,1,SimpleHill,0-0,0,38,43-51,50-48;50-47;41-42;39-53;40-44;43-51,50-48,99,0
optimal,random_robot_174,10,6,1,SimpleHill,0-0,0,39,50-48,58-46;47-55;57-42;48-55;58-50;44-50,44-50,99,0
optimal,random_robot_174,10,6,1,SimpleHill,0-0,0,40,44-50,36-49;47-41;51-56;51-53;50-45;44-58,50-45,99,0
optimal,random_robot_174,10,6,1,SimpleHill,0-0,0,41,50-45,48-52;54-38;51-45;44-44;52-52;46-46,48-52,99,0
optimal,random_robot_174,10,6,1,SimpleHill,0-0,0,42,48-52,38-52;44-45;57-54;50-58;46-44;49-59,44-45,98,-1
optimal,random_robot_174,10,6,1,SimpleHill,0-0,0,43,44-45,46-51;45-40;49-51;34-45;45-36;49-37,46-51,99,1
optimal,random_robot_174,10,6,1,SimpleHill,0-0,0,44,46-51,50-50;50-59;48-55;44-51;49-56;42-45,50-50,100,1
optimal,random_robot_174,10,6,1,SimpleHill,0-0,0,45,50-50,42-50;52-50;48-50;48-43;49-42;46-55,46-55,99,-1
optimal,random_robot_174,10,6,1,SimpleHill,0-0,0,46,46-55,39-51;43-49;44-64;44-49;37-51;54-59,43-49,99,0
optimal,random_robot_174,10,6,1,SimpleHill,0-0,0,47,43-49,49-57;42-41;46-47;47-49;43-40;36-45,49-57,99,0
optimal,random_robot_174,10,6,1,SimpleHill,0-0,0,48,49-57,43-54;55-60;44-62;54-49;53-60;47-58,54-49,99,0
optimal,random_robot_174,10,6,1,SimpleHill,0-0,0,49,54-49,62-55;50-53;53-44;60-50;61-56;48-42,50-53,99,0
optimal,random_robot_174,10,6,1,SimpleHill,0-0,0,50,50-53,50-43;46-47;46-53;56-53;52-52;53-50,50-43,99,0
optimal,random_robot_174,10,6,1,SimpleHill,0-0,0,51,50-43,49-47;50-47;48-42;51-41;54-46;53-50,49-47,99,0
optimal,random_robot_174,10,6,1,SimpleHill,0-0,0,52,49-47,55-52;52-49;45-39;42-44;55-45;54-43,55-52,99,0
optimal,random_robot_174,10,6,1,SimpleHill,0-0,0,53,55-52,50-50;53-45;57-47;54-52;55-48;60-54,50-50,100,1
optimal,random_robot_174,10,6,1,SimpleHill,0-0,0,54,50-50,52-49;50-59;58-51;57-47;51-52;57-54,52-49,99,-1
optimal,random_robot_174,10,6,1,SimpleHill,0-0,0,55,52-49,56-54;51-46;58-57;58-50;44-52;52-41,44-52,99,0
optimal,random_robot_174,10,6,1,SimpleHill,0-0,0,56,44-52,38-45;41-44;40-47;54-52;47-60;53-49,53-49,99,0
optimal,random_robot_174,10,6,1,SimpleHill,0-0,0,57,53-49,57-51;49-40;58-44;59-43;58-55;49-48,57-51,99,0
optimal,random_robot_174,10,6,1,SimpleHill,0-0,0,58,57-51,64-45;65-51;62-50;60-50;61-53;50-46,50-46,99,0
optimal,random_robot_174,10,6,1,SimpleHill,0-0,0,59,50-46,53-52;45-53;47-53;54-39;54-41;41-45,53-52,99,0
optimal,random_robot_174,10,6,1,SimpleHill,0-0,0,60,53-52,48-58;44-52;50-53;50-45;53-57;47-59,44-52,99,0
optimal,random_robot_174,10,6,1,SimpleHill,0-0,0,61,44-52,41-53;41-57;46-48;51-54;38-51;35-52,46-48,99,0
optimal,random_robot_174,10,6,1,SimpleHill,0-0,0,62,46-48,48-43;45-53;44-57;50-54;48-44;40-50,45-53,99,0
optimal,random_robot_174,10,6,1,SimpleHill,0-0,0,63,45-53,38-59;48-46;52-52;40-54;51-49;50-47,48-46,99,0
optimal,random_robot_174,10,6,1,SimpleHill,0-0,0,64,48-46,45-43;47-45;52-43;46-51;44-42;44-45,46-51,99,0
optimal,random_robot_174,10,6,1,SimpleHill,0-0,0,65,46-51,39-45;44-48;42-56;52-44;50-45;46-57,44-48,99,0
optimal,random_robot_174,10,6,1,SimpleHill,0-0,0,66,44-48,40-54;37-55;37-41;51-47;40-46;42-42,51-47,99,0
optimal,random_robot_174,10,6,1,SimpleHill,0-0,0,67,51-47,55-39;48-51;55-48;44-46;51-48;56-53,48-51,99,0
optimal,random_robot_174,10,6,1,SimpleHill,0-0,0,68,48-51,52-54;49-54;39-51;44-44;45-42;45-44,52-54,99,0
optimal,random_robot_174,10,6,1,SimpleHill,0-0,0,69,52-54,52-51;48-57;45-49;56-46;48-59;52-61,52-51,99,0
optimal,random_robot_174,10,6,1,SimpleHill,0-0,0,70,52-51,51-42;46-58;46-47;45-50;57-58;60-51,45-50,99,0
optimal,random_robot_174,10,6,1,SimpleHill,0-0,0,71,45-50,46-59;37-56;47-58;54-48;43-58;52-56,52-56,99,0
optimal,random_robot_174,10,6,1,SimpleHill,0-0,0,72,52-56,57-62;45-63;48-58;56-60;44-50;49-64,44-50,99,0
optimal,random_robot_174,10,6,1,SimpleHill,0-0,0,73,44-50,48-52;40-43;40-49;44-60;43-59;41-46,48-52,99,0
optimal,random_robot_174,10,6,1,SimpleHill,0-0,0,74,48-52,56-48;43-56;44-60;41-50;40-55;44-53,56-48,99,0
optimal,random_robot_174,10,6,1,SimpleHill,0-0,0,75,56-48,61-49;55-52;49-44;55-54;65-46;62-52,49-44,99,0
optimal,random_robot_174,10,6,1,SimpleHill,0-0,0,76,49-44,51-43;43-47;53-35;46-41;46-44;58-46,51-43,99,0
optimal,random_robot_174,10,6,1,SimpleHill,0-0,0,77,51-43,52-41;46-45;50-48;43-45;44-37;46-50,46-45,99,0
optimal,random_robot_174,10,6,1,SimpleHill,0-0,0,78,46-45,40-46;39-52;47-44;42-51;39-50;44-36,47-44,99,0
optimal,random_robot_174,10,6,1,SimpleHill,0-0,0,79,47-44,46-49;51-40;44-46;55-48;50-42;54-50,46-49,99,0
