simulation_type,subj_id,sight_radius,n_gabors,block_ix,landscape_name,starting_pos,starting_score,trial,pos,stims,selected,score,delta
random,random_robot_110,10,6,1,SimpleHill,0-0,0,0,0-0,2-9;6-5;2-1;3-3;1-7;5-1,2-9,20,20
random,random_robot_110,10,6,1,SimpleHill,0-0,0,1,2-9,4-12;2-14;4-8;6-8;6-0;1-17,6-8,26,6
random,random_robot_110,10,6,1,SimpleHill,0-0,0,2,6-8,7-4;9-14;14-5;7-15;4-0;0-12,0-12,21,-5
random,random_robot_110,10,6,1,SimpleHill,0-0,0,3,0-12,6-6;0-6;8-10;4-12;3-9;8-15,8-15,40,19
random,random_robot_110,10,6,1,SimpleHill,0-0,0,4,8-15,2-23;13-7;1-22;12-8;3-15;2-14,13-7,35,-5
random,random_robot_110,10,6,1,SimpleHill,0-0,0,5,13-7,19-5;13-6;6-10;14-10;4-10;19-13,19-5,40,5
random,random_robot_110,10,6,1,SimpleHill,0-0,0,6,19-5,14-2;12-5;25-6;23-2;13-3;19-13,14-2,28,-12
random,random_robot_110,10,6,1,SimpleHill,0-0,0,7,14-2,12-8;20-9;11-10;13-7;12-6;13-9,12-8,35,7
random,random_robot_110,10,6,1,SimpleHill,0-0,0,8,12-8,16-11;13-2;11-6;5-1;5-15;4-2,11-6,30,-5
random,random_robot_110,10,6,1,SimpleHill,0-0,0,9,11-6,15-14;12-8;15-7;16-3;7-0;19-4,16-3,32,2
random,random_robot_110,10,6,1,SimpleHill,0-0,0,10,16-3,20-7;10-2;13-4;9-9;22-9;22-5,20-7,45,13
random,random_robot_110,10,6,1,SimpleHill,0-0,0,11,20-7,25-15;21-6;17-2;17-13;18-1;27-2,21-6,44,-1
random,random_robot_110,10,6,1,SimpleHill,0-0,0,12,21-6,19-9;15-6;13-1;17-8;21-8;16-4,16-4,34,-10
random,random_robot_110,10,6,1,SimpleHill,0-0,0,13,16-4,10-3;17-10;17-11;12-8;12-4;7-1,10-3,23,-11
random,random_robot_110,10,6,1,SimpleHill,0-0,0,14,10-3,7-2;8-6;19-7;9-8;4-2;14-11,8-6,26,3
random,random_robot_110,10,6,1,SimpleHill,0-0,0,15,8-6,5-15;14-8;15-12;5-13;10-0;15-5,5-13,32,6
random,random_robot_110,10,6,1,SimpleHill,0-0,0,16,5-13,8-6;3-19;0-18;0-12;1-4;11-20,3-19,36,4
random,random_robot_110,10,6,1,SimpleHill,0-0,0,17,3-19,5-14;4-16;4-15;7-18;4-11;6-24,5-14,33,-3
random,random_robot_110,10,6,1,SimpleHill,0-0,0,18,5-14,5-7;7-11;8-11;4-7;10-9;11-16,5-7,22,-11
random,random_robot_110,10,6,1,SimpleHill,0-0,0,19,5-7,2-2;7-2;5-16;2-12;12-9;6-7,12-9,37,15
random,random_robot_110,10,6,1,SimpleHill,0-0,0,20,12-9,18-1;19-9;21-6;4-13;11-4;7-1,11-4,27,-10
random,random_robot_110,10,6,1,SimpleHill,0-0,0,21,11-4,4-6;15-0;7-11;3-2;2-2;4-1,7-11,32,5
random,random_robot_110,10,6,1,SimpleHill,0-0,0,22,7-11,15-14;8-10;12-11;10-13;11-3;9-19,8-10,32,0
random,random_robot_110,10,6,1,SimpleHill,0-0,0,23,8-10,15-8;11-11;8-2;0-15;11-9;10-17,8-2,18,-14
random,random_robot_110,10,6,1,SimpleHill,0-0,0,24,8-2,0-6;10-8;8-4;11-11;7-6;16-6,8-4,22,4
random,random_robot_110,10,6,1,SimpleHill,0-0,0,25,8-4,3-12;2-3;4-6;15-3;10-2;5-13,2-3,9,-13
random,random_robot_110,10,6,1,SimpleHill,0-0,0,26,2-3,4-5;5-12;1-2;2-12;12-3;9-6,5-12,30,21
random,random_robot_110,10,6,1,SimpleHill,0-0,0,27,5-12,2-4;4-20;10-6;4-13;8-9;11-6,10-6,29,-1
random,random_robot_110,10,6,1,SimpleHill,0-0,0,28,10-6,6-5;14-3;9-14;19-6;12-10;13-10,14-3,29,0
random,random_robot_110,10,6,1,SimpleHill,0-0,0,29,14-3,22-2;11-2;12-8;16-7;20-10;7-9,16-7,39,10
random,random_robot_110,10,6,1,SimpleHill,0-0,0,30,16-7,17-0;18-1;22-0;14-16;9-10;10-7,18-1,31,-8
random,random_robot_110,10,6,1,SimpleHill,0-0,0,31,18-1,11-3;12-0;27-5;17-9;15-9;24-1,24-1,38,7
random,random_robot_110,10,6,1,SimpleHill,0-0,0,32,24-1,20-6;26-6;19-1;21-2;22-1;24-1,19-1,32,-6
random,random_robot_110,10,6,1,SimpleHill,0-0,0,33,19-1,26-2;27-5;21-5;18-5;16-9;17-7,26-2,42,10
random,random_robot_110,10,6,1,SimpleHill,0-0,0,34,26-2,29-9;22-0;20-3;19-9;20-9;32-7,32-7,56,14
random,random_robot_110,10,6,1,SimpleHill,0-0,0,35,32-7,32-5;25-3;37-6;30-14;22-7;37-8,37-8,61,5
random,random_robot_110,10,6,1,SimpleHill,0-0,0,36,37-8,44-10;43-0;41-12;36-7;43-2;40-2,41-12,69,8
random,random_robot_110,10,6,1,SimpleHill,0-0,0,37,41-12,44-19;42-3;39-19;35-4;39-17;47-19,39-19,78,9
random,random_robot_110,10,6,1,SimpleHill,0-0,0,38,39-19,32-21;37-13;36-24;45-23;39-24;47-18,45-23,84,6
random,random_robot_110,10,6,1,SimpleHill,0-0,0,39,45-23,44-16;48-29;42-17;52-29;52-27;51-27,52-27,89,5
random,random_robot_110,10,6,1,SimpleHill,0-0,0,40,52-27,53-35;50-28;52-32;48-18;55-27;61-23,53-35,95,6
random,random_robot_110,10,6,1,SimpleHill,0-0,0,41,53-35,52-43;48-41;45-32;59-27;44-33;53-36,48-41,98,3
random,random_robot_110,10,6,1,SimpleHill,0-0,0,42,48-41,45-42;40-46;41-43;44-38;55-44;45-39,44-38,96,-2
random,random_robot_110,10,6,1,SimpleHill,0-0,0,43,44-38,40-30;46-38;40-36;40-47;46-34;54-38,40-47,97,1
random,random_robot_110,10,6,1,SimpleHill,0-0,0,44,40-47,48-47;43-55;39-43;47-44;34-41;37-42,43-55,98,1
random,random_robot_110,10,6,1,SimpleHill,0-0,0,45,43-55,49-55;44-62;43-54;49-59;38-48;43-49,43-49,99,1
random,random_robot_110,10,6,1,SimpleHill,0-0,0,46,43-49,44-46;46-44;37-48;40-40;40-46;42-44,42-44,98,-1
random,random_robot_110,10,6,1,SimpleHill,0-0,0,47,42-44,42-38;38-48;44-42;36-45;47-50;42-52,36-45,95,-3
random,random_robot_110,10,6,1,SimpleHill,0-0,0,48,36-45,38-48;43-44;28-39;33-42;42-41;38-49,33-42,92,-3
random,random_robot_110,10,6,1,SimpleHill,0-0,0,49,33-42,35-47;38-46;30-49;32-42;38-47;38-35,32-42,92,0
random,random_robot_110,10,6,1,SimpleHill,0-0,0,50,32-42,34-40;33-43;30-35;27-34;34-39;40-40,34-40,92,0
random,random_robot_110,10,6,1,SimpleHill,0-0,0,51,34-40,29-47;36-43;31-48;34-48;29-37;37-48,29-47,91,-1
random,random_robot_110,10,6,1,SimpleHill,0-0,0,52,29-47,25-44;24-55;33-47;21-51;27-47;28-44,28-44,89,-2
random,random_robot_110,10,6,1,SimpleHill,0-0,0,53,28-44,32-48;29-48;26-45;31-41;36-38;31-39,32-48,93,4
random,random_robot_110,10,6,1,SimpleHill,0-0,0,54,32-48,41-44;35-49;28-56;37-52;27-56;32-40,32-40,91,-2
random,random_robot_110,10,6,1,SimpleHill,0-0,0,55,32-40,26-43;41-42;34-35;31-46;37-40;25-39,41-42,97,6
random,random_robot_110,10,6,1,SimpleHill,0-0,0,56,41-42,38-34;46-44;31-42;34-48;40-42;46-34,31-42,91,-6
random,random_robot_110,10,6,1,SimpleHill,0-0,0,57,31-42,27-41;23-47;28-44;23-40;38-40;36-36,36-36,92,1
random,random_robot_110,10,6,1,SimpleHill,0-0,0,58,36-36,27-37;39-30;41-34;37-31;32-33;34-33,32-33,87,-5
random,random_robot_110,10,6,1,SimpleHill,0-0,0,59,32-33,39-32;40-31;24-28;35-33;31-29;29-24,31-29,83,-4
random,random_robot_110,10,6,1,SimpleHill,0-0,0,60,31-29,31-27;31-33;36-36;35-22;35-20;32-24,35-20,77,-6
random,random_robot_110,10,6,1,SimpleHill,0-0,0,61,35-20,39-27;31-26;37-11;37-15;43-25;31-12,37-11,66,-11
random,random_robot_110,10,6,1,SimpleHill,0-0,0,62,37-11,40-18;35-10;34-3;40-5;41-12;45-5,41-12,69,3
random,random_robot_110,10,6,1,SimpleHill,0-0,0,63,41-12,39-4;34-12;50-10;41-11;50-9;41-17,39-4,55,-14
random,random_robot_110,10,6,1,SimpleHill,0-0,0,64,39-4,40-11;39-2;43-2;37-13;34-10;45-9,40-11,67,12
random,random_robot_110,10,6,1,SimpleHill,0-0,0,65,40-11,37-13;41-17;36-3;45-12;37-9;44-2,41-17,76,9
random,random_robot_110,10,6,1,SimpleHill,0-0,0,66,41-17,45-9;41-26;45-10;38-23;43-15;35-15,35-15,71,-5
random,random_robot_110,10,6,1,SimpleHill,0-0,0,67,35-15,38-15;28-11;27-18;38-9;40-15;40-20,40-15,73,2
random,random_robot_110,10,6,1,SimpleHill,0-0,0,68,40-15,33-18;37-8;37-16;35-8;48-17;42-18,37-16,73,0
random,random_robot_110,10,6,1,SimpleHill,0-0,0,69,37-16,35-7;43-17;43-21;35-16;38-25;28-12,28-12,61,-12
random,random_robot_110,10,6,1,SimpleHill,0-0,0,70,28-12,35-19;28-19;26-9;20-14;19-14;30-14,30-14,66,5
random,random_robot_110,10,6,1,SimpleHill,0-0,0,71,30-14,37-11;27-17;32-19;28-14;34-13;36-10,34-13,67,1
random,random_robot_110,10,6,1,SimpleHill,0-0,0,72,34-13,34-8;35-13;26-18;30-12;27-12;26-13,26-13,61,-6
random,random_robot_110,10,6,1,SimpleHill,0-0,0,73,26-13,20-7;17-14;21-17;30-19;33-12;30-20,17-14,52,-9
random,random_robot_110,10,6,1,SimpleHill,0-0,0,74,17-14,12-14;26-12;8-11;18-10;14-6;14-8,14-6,35,-17
random,random_robot_110,10,6,1,SimpleHill,0-0,0,75,14-6,17-0;21-3;18-0;15-9;12-4;13-1,17-0,28,-7
random,random_robot_110,10,6,1,SimpleHill,0-0,0,76,17-0,21-0;10-2;12-7;27-0;23-1;17-3,23-1,37,9
random,random_robot_110,10,6,1,SimpleHill,0-0,0,77,23-1,18-6;30-3;18-7;16-7;30-8;22-3,30-3,47,10
random,random_robot_110,10,6,1,SimpleHill,0-0,0,78,30-3,29-2;24-3;37-0;30-12;28-1;38-9,38-9,63,16
random,random_robot_110,10,6,1,SimpleHill,0-0,0,79,38-9,34-5;44-5;47-12;45-9;47-10;42-3,42-3,54,-9
random,random_robot_110,10,6,1,SimpleHill,0-0,0,80,42-3,45-2;51-4;36-10;38-12;35-3;38-3,38-12,68,14
random,random_robot_110,10,6,1,SimpleHill,0-0,0,81,38-12,40-21;36-20;28-12;33-4;29-15;34-14,34-14,68,0
random,random_robot_110,10,6,1,SimpleHill,0-0,0,82,34-14,30-10;30-19;33-20;37-9;35-12;29-11,33-20,76,8
random,random_robot_110,10,6,1,SimpleHill,0-0,0,83,33-20,31-28;32-13;30-14;27-21;38-22;39-17,27-21,72,-4
random,random_robot_110,10,6,1,SimpleHill,0-0,0,84,27-21,20-15;33-17;23-16;27-15;30-24;22-24,27-15,64,-8
random,random_robot_110,10,6,1,SimpleHill,0-0,0,85,27-15,21-16;30-11;21-23;23-12;21-9;36-17,23-12,56,-8
random,random_robot_110,10,6,1,SimpleHill,0-0,0,86,23-12,14-12;17-18;26-12;23-14;24-6;25-18,14-12,45,-11
random,random_robot_110,10,6,1,SimpleHill,0-0,0,87,14-12,7-18;20-19;8-7;10-12;7-13;21-9,21-9,49,4
random,random_robot_110,10,6,1,SimpleHill,0-0,0,88,21-9,13-14;16-4;14-2;24-10;22-14;22-4,14-2,28,-21
random,random_robot_110,10,6,1,SimpleHill,0-0,0,89,14-2,9-9;21-9;8-9;22-4;13-8;19-5,8-9,31,3
random,random_robot_110,10,6,1,SimpleHill,0-0,0,90,8-9,8-3;11-8;14-13;10-18;11-0;0-13,14-13,46,15
random,random_robot_110,10,6,1,SimpleHill,0-0,0,91,14-13,18-22;19-17;9-8;17-18;5-9;7-11,7-11,32,-14
random,random_robot_110,10,6,1,SimpleHill,0-0,0,92,7-11,11-9;3-14;5-14;5-5;12-13;10-13,12-13,43,11
random,random_robot_110,10,6,1,SimpleHill,0-0,0,93,12-13,15-11;4-17;11-13;15-13;9-13;10-14,10-14,42,-1
random,random_robot_110,10,6,1,SimpleHill,0-0,0,94,10-14,13-21;7-14;19-11;8-7;16-15;12-7,16-15,52,10
random,random_robot_110,10,6,1,SimpleHill,0-0,0,95,16-15,18-13;13-11;13-22;8-13;23-14;20-8,18-13,52,0
random,random_robot_110,10,6,1,SimpleHill,0-0,0,96,18-13,19-8;18-15;22-8;24-5;10-18;12-12,12-12,42,-10
random,random_robot_110,10,6,1,SimpleHill,0-0,0,97,12-12,18-13;20-6;20-15;16-19;16-14;20-13,20-15,57,15
random,random_robot_110,10,6,1,SimpleHill,0-0,0,98,20-15,28-20;22-11;13-22;20-23;25-7;18-17,28-20,72,15
random,random_robot_110,10,6,1,SimpleHill,0-0,0,99,28-20,22-21;34-20;31-11;37-23;26-20;19-16,31-11,62,-10
random,random_robot_110,10,6,1,SimpleHill,0-0,0,100,31-11,36-4;23-11;37-14;24-10;26-3;29-11,36-4,53,-9
random,random_robot_110,10,6,1,SimpleHill,0-0,0,101,36-4,42-12;39-10;38-13;37-4;29-3;37-9,38-13,69,16
random,random_robot_110,10,6,1,SimpleHill,0-0,0,102,38-13,47-13;35-13;43-5;40-9;39-8;38-11,35-13,68,-1
random,random_robot_110,10,6,1,SimpleHill,0-0,0,103,35-13,37-18;38-5;35-12;35-15;27-15;35-11,37-18,76,8
random,random_robot_110,10,6,1,SimpleHill,0-0,0,104,37-18,43-20;36-21;31-22;33-9;34-18;38-18,33-9,60,-16
random,random_robot_110,10,6,1,SimpleHill,0-0,0,105,33-9,32-6;31-10;39-6;27-14;25-8;40-11,40-11,67,7
random,random_robot_110,10,6,1,SimpleHill,0-0,0,106,40-11,32-10;44-17;45-12;37-15;38-7;37-20,38-7,60,-7
random,random_robot_110,10,6,1,SimpleHill,0-0,0,107,38-7,32-1;43-15;32-15;35-0;36-0;44-2,32-1,45,-15
random,random_robot_110,10,6,1,SimpleHill,0-0,0,108,32-1,34-6;29-2;33-8;23-3;32-5;24-4,24-4,44,-1
random,random_robot_110,10,6,1,SimpleHill,0-0,0,109,24-4,27-11;29-5;26-4;23-3;29-8;20-6,23-3,41,-3
random,random_robot_110,10,6,1,SimpleHill,0-0,0,110,23-3,28-3;17-10;18-1;25-9;19-10;31-2,18-1,31,-10
random,random_robot_110,10,6,1,SimpleHill,0-0,0,111,18-1,18-9;12-6;19-6;25-2;15-7;23-1,23-1,37,6
random,random_robot_110,10,6,1,SimpleHill,0-0,0,112,23-1,13-1;25-8;32-2;25-1;14-5;30-2,32-2,47,10
random,random_robot_110,10,6,1,SimpleHill,0-0,0,113,32-2,39-1;37-10;25-4;32-0;28-10;31-1,32-0,43,-4
random,random_robot_110,10,6,1,SimpleHill,0-0,0,114,32-0,28-0;29-1;31-5;38-3;23-1;27-5,38-3,52,9
random,random_robot_110,10,6,1,SimpleHill,0-0,0,115,38-3,36-8;40-3;31-0;40-2;40-7;28-3,36-8,60,8
random,random_robot_110,10,6,1,SimpleHill,0-0,0,116,36-8,37-12;38-8;39-2;41-11;41-4;29-11,37-12,67,7
random,random_robot_110,10,6,1,SimpleHill,0-0,0,117,37-12,30-16;45-11;42-13;46-14;39-20;29-9,29-9,57,-10
random,random_robot_110,10,6,1,SimpleHill,0-0,0,118,29-9,27-10;37-4;31-0;27-13;38-6;37-5,31-0,42,-15
random,random_robot_110,10,6,1,SimpleHill,0-0,0,119,31-0,27-8;22-1;29-7;37-5;40-4;40-2,40-2,51,9
random,random_robot_110,10,6,1,SimpleHill,0-0,0,120,40-2,47-4;41-0;36-6;37-7;32-3;46-2,47-4,57,6
random,random_robot_110,10,6,1,SimpleHill,0-0,0,121,47-4,54-7;45-7;43-10;50-7;51-7;39-1,54-7,62,5
random,random_robot_110,10,6,1,SimpleHill,0-0,0,122,54-7,48-0;63-4;52-1;52-5;59-14;62-8,62-8,61,-1
random,random_robot_110,10,6,1,SimpleHill,0-0,0,123,62-8,56-16;57-1;61-3;56-5;62-3;63-4,56-5,58,-3
random,random_robot_110,10,6,1,SimpleHill,0-0,0,124,56-5,50-4;58-7;59-1;47-7;57-12;57-10,57-10,67,9
random,random_robot_110,10,6,1,SimpleHill,0-0,0,125,57-10,63-7;56-9;61-2;61-19;49-6;63-4,61-19,78,11
random,random_robot_110,10,6,1,SimpleHill,0-0,0,126,61-19,62-18;62-25;54-21;58-10;52-17;66-23,58-10,66,-12
random,random_robot_110,10,6,1,SimpleHill,0-0,0,127,58-10,49-7;55-9;60-11;64-4;56-2;53-10,55-9,65,-1
random,random_robot_110,10,6,1,SimpleHill,0-0,0,128,55-9,63-14;54-13;54-18;50-7;47-9;51-11,54-18,79,14
random,random_robot_110,10,6,1,SimpleHill,0-0,0,129,54-18,58-12;46-12;56-26;55-19;48-25;56-10,58-12,69,-10
random,random_robot_110,10,6,1,SimpleHill,0-0,0,130,58-12,51-5;60-17;63-8;52-15;55-14;60-20,55-14,73,4
random,random_robot_110,10,6,1,SimpleHill,0-0,0,131,55-14,50-6;51-12;48-8;54-20;55-6;52-15,51-12,71,-2
random,random_robot_110,10,6,1,SimpleHill,0-0,0,132,51-12,48-18;52-11;42-12;54-15;45-15;46-20,46-20,81,10
random,random_robot_110,10,6,1,SimpleHill,0-0,0,133,46-20,52-19;48-16;53-13;52-20;43-11;42-22,52-20,81,0
random,random_robot_110,10,6,1,SimpleHill,0-0,0,134,52-20,46-25;51-19;46-13;47-17;50-20;43-24,51-19,80,-1
random,random_robot_110,10,6,1,SimpleHill,0-0,0,135,51-19,56-27;56-16;53-24;46-22;50-22;46-16,53-24,86,6
random,random_robot_110,10,6,1,SimpleHill,0-0,0,136,53-24,54-28;53-17;47-24;52-27;44-28;58-32,47-24,86,0
random,random_robot_110,10,6,1,SimpleHill,0-0,0,137,47-24,47-34;50-27;48-20;46-33;44-20;44-21,47-34,94,8
random,random_robot_110,10,6,1,SimpleHill,0-0,0,138,47-34,52-32;49-42;40-31;38-38;45-41;40-28,38-38,94,0
random,random_robot_110,10,6,1,SimpleHill,0-0,0,139,38-38,32-33;35-46;43-46;38-42;47-41;40-33,47-41,98,4
random,random_robot_110,10,6,1,SimpleHill,0-0,0,140,47-41,48-32;51-35;41-41;45-46;51-42;47-40,48-32,93,-5
random,random_robot_110,10,6,1,SimpleHill,0-0,0,141,48-32,47-37;51-41;41-25;40-30;56-37;45-31,47-37,96,3
random,random_robot_110,10,6,1,SimpleHill,0-0,0,142,47-37,39-41;51-30;53-35;51-29;53-40;46-35,51-29,91,-5
random,random_robot_110,10,6,1,SimpleHill,0-0,0,143,51-29,60-32;53-34;59-26;45-27;58-22;55-26,60-32,91,0
random,random_robot_110,10,6,1,SimpleHill,0-0,0,144,60-32,57-40;57-25;64-25;62-28;55-27;60-25,55-27,88,-3
random,random_robot_110,10,6,1,SimpleHill,0-0,0,145,55-27,54-23;60-34;63-32;54-24;52-25;56-18,52-25,87,-1
random,random_robot_110,10,6,1,SimpleHill,0-0,0,146,52-25,52-21;59-20;46-21;55-19;53-18;50-30,50-30,92,5
random,random_robot_110,10,6,1,SimpleHill,0-0,0,147,50-30,44-23;42-25;53-22;50-31;55-29;50-23,42-25,86,-6
random,random_robot_110,10,6,1,SimpleHill,0-0,0,148,42-25,41-24;37-20;43-17;44-16;44-24;51-27,37-20,78,-8
random,random_robot_110,10,6,1,SimpleHill,0-0,0,149,37-20,41-17;32-14;34-26;34-11;42-16;34-23,42-16,75,-3
random,random_robot_110,10,6,1,SimpleHill,0-0,0,150,42-16,49-14;45-12;48-15;46-16;50-17;45-24,49-14,74,-1
random,random_robot_110,10,6,1,SimpleHill,0-0,0,151,49-14,55-17;41-8;45-17;44-21;58-11;46-21,55-17,77,3
random,random_robot_110,10,6,1,SimpleHill,0-0,0,152,55-17,64-15;53-18;52-13;60-13;52-24;54-15,53-18,79,2
random,random_robot_110,10,6,1,SimpleHill,0-0,0,153,53-18,56-27;54-16;54-15;45-17;55-15;54-9,56-27,88,9
random,random_robot_110,10,6,1,SimpleHill,0-0,0,154,56-27,49-25;51-31;49-21;55-19;60-20;55-22,55-19,80,-8
random,random_robot_110,10,6,1,SimpleHill,0-0,0,155,55-19,46-23;54-12;53-26;61-22;62-19;53-11,61-22,81,1
random,random_robot_110,10,6,1,SimpleHill,0-0,0,156,61-22,65-24;56-19;52-23;70-25;67-15;64-14,67-15,69,-12
random,random_robot_110,10,6,1,SimpleHill,0-0,0,157,67-15,67-15;69-20;69-8;68-10;70-9;70-7,70-7,55,-14
random,random_robot_110,10,6,1,SimpleHill,0-0,0,158,70-7,64-8;70-15;69-15;69-4;66-7;68-7,66-7,57,2
random,random_robot_110,10,6,1,SimpleHill,0-0,0,159,66-7,67-12;62-16;70-0;67-10;65-14;63-3,62-16,74,17
random,random_robot_110,10,6,1,SimpleHill,0-0,0,160,62-16,70-13;64-19;64-18;65-24;55-17;61-12,70-13,64,-10
random,random_robot_110,10,6,1,SimpleHill,0-0,0,161,70-13,62-19;70-3;70-19;65-20;70-11;70-14,65-20,77,13
random,random_robot_110,10,6,1,SimpleHill,0-0,0,162,65-20,64-15;57-24;69-25;65-10;61-25;65-27,65-27,84,7
random,random_robot_110,10,6,1,SimpleHill,0-0,0,163,65-27,58-29;70-19;68-18;70-28;66-20;58-26,68-18,73,-11
random,random_robot_110,10,6,1,SimpleHill,0-0,0,164,68-18,62-12;69-15;70-22;69-13;60-22;63-16,63-16,73,0
random,random_robot_110,10,6,1,SimpleHill,0-0,0,165,63-16,57-24;61-17;60-22;58-21;63-25;63-21,57-24,85,12
random,random_robot_110,10,6,1,SimpleHill,0-0,0,166,57-24,49-22;66-21;53-29;65-24;60-32;53-20,66-21,78,-7
random,random_robot_110,10,6,1,SimpleHill,0-0,0,167,66-21,60-24;66-18;66-11;62-19;60-20;63-25,63-25,84,6
random,random_robot_110,10,6,1,SimpleHill,0-0,0,168,63-25,57-32;70-26;58-21;56-19;65-30;67-25,56-19,80,-4
random,random_robot_110,10,6,1,SimpleHill,0-0,0,169,56-19,56-18;50-25;55-16;51-14;52-14;65-20,52-14,74,-6
random,random_robot_110,10,6,1,SimpleHill,0-0,0,170,52-14,45-18;54-23;58-7;55-18;57-19;44-13,54-23,85,11
random,random_robot_110,10,6,1,SimpleHill,0-0,0,171,54-23,62-18;57-29;55-19;46-23;48-21;50-32,62-18,76,-9
random,random_robot_110,10,6,1,SimpleHill,0-0,0,172,62-18,64-12;58-15;70-14;67-18;59-26;63-17,58-15,74,-2
random,random_robot_110,10,6,1,SimpleHill,0-0,0,173,58-15,66-20;66-14;55-12;51-15;57-18;64-8,66-20,76,2
random,random_robot_110,10,6,1,SimpleHill,0-0,0,174,66-20,64-15;62-26;67-15;64-11;66-15;69-15,62-26,85,9
random,random_robot_110,10,6,1,SimpleHill,0-0,0,175,62-26,69-28;61-25;68-32;67-32;65-31;55-23,61-25,85,0
random,random_robot_110,10,6,1,SimpleHill,0-0,0,176,61-25,57-24;52-28;60-34;66-24;53-29;69-21,57-24,85,0
random,random_robot_110,10,6,1,SimpleHill,0-0,0,177,57-24,57-15;54-28;61-33;52-16;51-19;55-29,61-33,91,6
random,random_robot_110,10,6,1,SimpleHill,0-0,0,178,61-33,55-27;66-28;67-35;55-34;66-41;63-30,55-34,94,3
random,random_robot_110,10,6,1,SimpleHill,0-0,0,179,55-34,61-35;50-29;59-42;48-37;54-26;61-28,50-29,91,-3
random,random_robot_110,10,6,1,SimpleHill,0-0,0,180,50-29,50-39;46-21;43-36;44-32;59-25;53-38,50-39,97,6
random,random_robot_110,10,6,1,SimpleHill,0-0,0,181,50-39,49-31;57-43;44-39;46-32;57-41;57-42,57-42,97,0
random,random_robot_110,10,6,1,SimpleHill,0-0,0,182,57-42,61-44;58-50;56-49;61-48;54-47;63-45,61-44,96,-1
random,random_robot_110,10,6,1,SimpleHill,0-0,0,183,61-44,59-40;66-43;51-44;56-51;54-50;59-36,59-40,96,0
random,random_robot_110,10,6,1,SimpleHill,0-0,0,184,59-40,64-38;56-43;60-31;51-36;56-41;52-34,51-36,96,0
random,random_robot_110,10,6,1,SimpleHill,0-0,0,185,51-36,42-37;52-38;48-30;42-32;58-29;51-36,42-37,95,-1
random,random_robot_110,10,6,1,SimpleHill,0-0,0,186,42-37,39-41;41-39;45-41;50-31;52-37;50-38,45-41,97,2
random,random_robot_110,10,6,1,SimpleHill,0-0,0,187,45-41,45-37;54-43;47-35;46-46;43-43;47-32,54-43,98,1
random,random_robot_110,10,6,1,SimpleHill,0-0,0,188,54-43,51-39;63-43;52-42;58-39;48-38;59-36,58-39,96,-2
random,random_robot_110,10,6,1,SimpleHill,0-0,0,189,58-39,63-31;50-33;61-32;52-35;50-39;55-44,63-31,89,-7
random,random_robot_110,10,6,1,SimpleHill,0-0,0,190,63-31,59-37;57-25;66-40;70-38;66-25;64-38,66-25,82,-7
random,random_robot_110,10,6,1,SimpleHill,0-0,0,191,66-25,61-17;69-32;66-19;69-16;58-31;62-27,66-19,75,-7
random,random_robot_110,10,6,1,SimpleHill,0-0,0,192,66-19,69-14;64-13;62-26;59-12;67-21;59-13,69-14,66,-9
random,random_robot_110,10,6,1,SimpleHill,0-0,0,193,69-14,66-7;66-9;66-12;62-21;69-15;61-14,66-9,61,-5
random,random_robot_110,10,6,1,SimpleHill,0-0,0,194,66-9,57-13;62-17;62-8;68-12;70-5;70-13,57-13,71,10
random,random_robot_110,10,6,1,SimpleHill,0-0,0,195,57-13,65-17;59-10;53-21;62-18;59-11;48-15,59-10,66,-5
random,random_robot_110,10,6,1,SimpleHill,0-0,0,196,59-10,50-6;63-5;62-5;52-6;55-3;61-2,61-2,51,-15
random,random_robot_110,10,6,1,SimpleHill,0-0,0,197,61-2,60-2;56-6;56-3;65-9;63-8;61-4,65-9,61,10
random,random_robot_110,10,6,1,SimpleHill,0-0,0,198,65-9,68-14;67-7;59-3;64-4;62-14;57-6,67-7,57,-4
random,random_robot_110,10,6,1,SimpleHill,0-0,0,199,67-7,65-1;70-2;62-15;68-9;65-15;69-11,69-11,62,5
