simulation_type,subj_id,sight_radius,n_gabors,block_ix,landscape_name,starting_pos,starting_score,trial,pos,stims,selected,score,delta
random,random_robot_128,10,6,1,SimpleHill,0-0,0,0,0-0,0-10;2-7;1-2;3-4;8-4;0-1,1-2,5,5
random,random_robot_128,10,6,1,SimpleHill,0-0,0,1,1-2,2-8;1-11;3-10;8-2;3-11;4-11,8-2,18,13
random,random_robot_128,10,6,1,SimpleHill,0-0,0,2,8-2,13-3;7-6;16-6;3-5;14-7;8-6,8-6,26,8
random,random_robot_128,10,6,1,SimpleHill,0-0,0,3,8-6,2-0;15-0;9-0;10-8;4-10;0-2,9-0,16,-10
random,random_robot_128,10,6,1,SimpleHill,0-0,0,4,9-0,8-4;2-5;15-3;6-8;2-2;10-3,15-3,31,15
random,random_robot_128,10,6,1,SimpleHill,0-0,0,5,15-3,19-11;14-9;20-2;12-6;10-11;13-7,20-2,35,4
random,random_robot_128,10,6,1,SimpleHill,0-0,0,6,20-2,13-1;11-3;15-0;26-10;14-3;17-9,14-3,29,-6
random,random_robot_128,10,6,1,SimpleHill,0-0,0,7,14-3,23-2;9-4;11-6;18-9;6-8;10-4,9-4,24,-5
random,random_robot_128,10,6,1,SimpleHill,0-0,0,8,9-4,3-3;6-11;14-4;5-9;11-11;10-4,10-4,25,1
random,random_robot_128,10,6,1,SimpleHill,0-0,0,9,10-4,13-6;11-4;14-6;4-6;18-0;10-13,4-6,18,-7
random,random_robot_128,10,6,1,SimpleHill,0-0,0,10,4-6,3-4;5-15;6-6;11-12;9-0;5-3,5-15,35,17
random,random_robot_128,10,6,1,SimpleHill,0-0,0,11,5-15,7-12;6-21;6-11;0-11;9-8;3-23,7-12,34,-1
random,random_robot_128,10,6,1,SimpleHill,0-0,0,12,7-12,11-8;3-18;0-9;6-20;9-17;14-10,11-8,34,0
random,random_robot_128,10,6,1,SimpleHill,0-0,0,13,11-8,4-3;12-0;5-9;16-8;17-11;10-10,10-10,36,2
random,random_robot_128,10,6,1,SimpleHill,0-0,0,14,10-10,18-10;13-7;13-13;8-12;2-16;9-14,13-13,45,9
random,random_robot_128,10,6,1,SimpleHill,0-0,0,15,13-13,13-3;12-20;20-9;8-11;21-11;12-11,12-20,53,8
random,random_robot_128,10,6,1,SimpleHill,0-0,0,16,12-20,13-27;9-25;11-24;15-11;11-26;17-19,17-19,59,6
random,random_robot_128,10,6,1,SimpleHill,0-0,0,17,17-19,17-15;11-18;9-21;15-25;14-17;12-14,17-15,53,-6
random,random_robot_128,10,6,1,SimpleHill,0-0,0,18,17-15,11-8;21-21;12-9;13-15;14-17;8-14,14-17,52,-1
random,random_robot_128,10,6,1,SimpleHill,0-0,0,19,14-17,7-20;9-11;13-23;13-8;18-9;20-24,13-8,37,-15
random,random_robot_128,10,6,1,SimpleHill,0-0,0,20,13-8,20-4;22-10;9-6;16-13;7-14;9-11,16-13,49,12
random,random_robot_128,10,6,1,SimpleHill,0-0,0,21,16-13,18-14;23-13;17-16;18-20;26-13;25-13,23-13,58,9
random,random_robot_128,10,6,1,SimpleHill,0-0,0,22,23-13,25-22;16-15;19-6;26-19;32-17;28-8,28-8,55,-3
random,random_robot_128,10,6,1,SimpleHill,0-0,0,23,28-8,32-17;32-3;36-9;34-1;26-1;34-15,36-9,62,7
random,random_robot_128,10,6,1,SimpleHill,0-0,0,24,36-9,37-2;43-5;30-10;40-7;33-16;36-8,40-7,61,-1
random,random_robot_128,10,6,1,SimpleHill,0-0,0,25,40-7,40-14;38-10;43-13;31-11;44-8;34-14,40-14,72,11
random,random_robot_128,10,6,1,SimpleHill,0-0,0,26,40-14,39-11;48-10;45-17;33-8;40-17;34-19,40-17,76,4
random,random_robot_128,10,6,1,SimpleHill,0-0,0,27,40-17,43-9;33-11;49-20;43-17;40-13;36-8,49-20,81,5
random,random_robot_128,10,6,1,SimpleHill,0-0,0,28,49-20,47-12;48-16;55-12;48-22;51-19;57-21,47-12,70,-11
random,random_robot_128,10,6,1,SimpleHill,0-0,0,29,47-12,54-10;49-15;48-19;49-6;43-16;52-4,54-10,67,-3
random,random_robot_128,10,6,1,SimpleHill,0-0,0,30,54-10,59-17;47-16;60-11;49-8;46-9;50-15,46-9,66,-1
random,random_robot_128,10,6,1,SimpleHill,0-0,0,31,46-9,47-12;39-14;47-8;48-18;53-14;52-6,47-12,70,4
random,random_robot_128,10,6,1,SimpleHill,0-0,0,32,47-12,45-10;49-13;51-13;52-10;51-10;39-15,51-10,67,-3
random,random_robot_128,10,6,1,SimpleHill,0-0,0,33,51-10,49-7;48-13;48-10;57-8;49-3;43-12,57-8,63,-4
random,random_robot_128,10,6,1,SimpleHill,0-0,0,34,57-8,48-9;65-13;60-4;57-12;59-3;53-8,48-9,66,3
random,random_robot_128,10,6,1,SimpleHill,0-0,0,35,48-9,53-16;55-2;38-9;46-14;51-1;56-5,51-1,51,-15
random,random_robot_128,10,6,1,SimpleHill,0-0,0,36,51-1,49-6;48-2;60-2;52-2;55-8;44-0,44-0,49,-2
random,random_robot_128,10,6,1,SimpleHill,0-0,0,37,44-0,41-5;40-6;44-1;46-6;47-9;44-0,44-0,49,0
random,random_robot_128,10,6,1,SimpleHill,0-0,0,38,44-0,36-6;42-4;43-1;38-0;39-2;52-0,36-6,57,8
random,random_robot_128,10,6,1,SimpleHill,0-0,0,39,36-6,33-13;45-5;40-7;40-11;43-0;30-5,40-11,67,10
random,random_robot_128,10,6,1,SimpleHill,0-0,0,40,40-11,36-5;45-4;42-14;41-8;38-15;38-6,38-6,58,-9
random,random_robot_128,10,6,1,SimpleHill,0-0,0,41,38-6,46-5;41-7;42-10;39-15;43-7;35-5,43-7,62,4
random,random_robot_128,10,6,1,SimpleHill,0-0,0,42,43-7,38-5;41-0;45-0;40-11;43-8;47-3,43-8,63,1
random,random_robot_128,10,6,1,SimpleHill,0-0,0,43,43-8,34-8;45-10;40-13;49-4;39-2;46-17,40-13,70,7
random,random_robot_128,10,6,1,SimpleHill,0-0,0,44,40-13,34-6;47-13;40-18;44-7;43-11;43-6,40-18,77,7
random,random_robot_128,10,6,1,SimpleHill,0-0,0,45,40-18,48-17;43-27;46-11;40-15;48-24;33-21,48-17,78,1
random,random_robot_128,10,6,1,SimpleHill,0-0,0,46,48-17,49-20;51-17;40-13;50-23;48-18;55-10,51-17,78,0
random,random_robot_128,10,6,1,SimpleHill,0-0,0,47,51-17,50-20;57-16;47-26;47-11;51-24;49-16,51-24,86,8
random,random_robot_128,10,6,1,SimpleHill,0-0,0,48,51-24,45-30;48-31;44-29;51-33;49-15;50-24,51-33,94,8
random,random_robot_128,10,6,1,SimpleHill,0-0,0,49,51-33,54-37;57-34;42-36;60-30;57-39;46-30,60-30,90,-4
random,random_robot_128,10,6,1,SimpleHill,0-0,0,50,60-30,65-32;56-37;54-29;57-38;66-29;54-30,56-37,95,5
random,random_robot_128,10,6,1,SimpleHill,0-0,0,51,56-37,59-46;58-30;51-37;63-40;58-31;57-38,59-46,98,3
random,random_robot_128,10,6,1,SimpleHill,0-0,0,52,59-46,59-36;56-44;63-39;54-38;63-38;63-52,63-38,93,-5
random,random_robot_128,10,6,1,SimpleHill,0-0,0,53,63-38,60-44;70-36;59-44;69-44;62-29;63-35,59-44,97,4
random,random_robot_128,10,6,1,SimpleHill,0-0,0,54,59-44,51-39;63-35;63-52;52-50;53-38;55-41,55-41,97,0
random,random_robot_128,10,6,1,SimpleHill,0-0,0,55,55-41,61-44;54-43;50-40;45-41;49-35;49-44,49-35,95,-2
random,random_robot_128,10,6,1,SimpleHill,0-0,0,56,49-35,40-31;43-42;52-32;53-39;42-35;44-36,44-36,95,0
random,random_robot_128,10,6,1,SimpleHill,0-0,0,57,44-36,37-40;35-40;36-36;45-42;48-35;50-31,48-35,95,0
random,random_robot_128,10,6,1,SimpleHill,0-0,0,58,48-35,45-40;45-34;44-36;48-28;42-32;45-31,42-32,92,-3
random,random_robot_128,10,6,1,SimpleHill,0-0,0,59,42-32,36-25;33-33;50-30;46-41;37-27;49-33,33-33,88,-4
random,random_robot_128,10,6,1,SimpleHill,0-0,0,60,33-33,29-30;28-28;28-36;36-41;33-37;36-37,29-30,83,-5
random,random_robot_128,10,6,1,SimpleHill,0-0,0,61,29-30,35-22;38-30;26-24;34-34;26-27;26-38,26-27,77,-6
random,random_robot_128,10,6,1,SimpleHill,0-0,0,62,26-27,27-34;30-29;29-26;33-29;30-18;21-35,33-29,85,8
random,random_robot_128,10,6,1,SimpleHill,0-0,0,63,33-29,26-30;40-35;39-34;31-34;37-22;37-23,39-34,92,7
random,random_robot_128,10,6,1,SimpleHill,0-0,0,64,39-34,39-39;38-30;34-30;37-27;35-35;34-35,38-30,89,-3
random,random_robot_128,10,6,1,SimpleHill,0-0,0,65,38-30,38-29;36-29;34-34;40-36;40-21;37-32,34-34,89,0
random,random_robot_128,10,6,1,SimpleHill,0-0,0,66,34-34,34-37;32-41;35-36;36-25;38-31;33-26,33-26,82,-7
random,random_robot_128,10,6,1,SimpleHill,0-0,0,67,33-26,40-20;38-19;38-28;32-21;39-21;24-27,32-21,76,-6
random,random_robot_128,10,6,1,SimpleHill,0-0,0,68,32-21,41-19;25-16;25-14;29-20;37-16;39-20,29-20,73,-3
random,random_robot_128,10,6,1,SimpleHill,0-0,0,69,29-20,35-19;32-22;26-24;32-28;33-18;30-22,33-18,73,0
random,random_robot_128,10,6,1,SimpleHill,0-0,0,70,33-18,29-26;41-23;31-16;41-14;24-15;31-9,41-14,72,-1
random,random_robot_128,10,6,1,SimpleHill,0-0,0,71,41-14,50-11;32-11;45-13;41-21;36-16;32-18,32-18,73,1
random,random_robot_128,10,6,1,SimpleHill,0-0,0,72,32-18,35-25;31-22;36-12;23-21;31-16;40-12,36-12,67,-6
random,random_robot_128,10,6,1,SimpleHill,0-0,0,73,36-12,38-11;32-21;29-13;40-14;44-12;27-14,44-12,70,3
random,random_robot_128,10,6,1,SimpleHill,0-0,0,74,44-12,35-9;47-4;47-20;37-13;53-8;53-15,47-20,81,11
random,random_robot_128,10,6,1,SimpleHill,0-0,0,75,47-20,46-25;54-17;40-21;52-19;45-20;51-21,51-21,83,2
random,random_robot_128,10,6,1,SimpleHill,0-0,0,76,51-21,43-23;55-19;48-22;55-15;53-28;52-28,43-23,84,1
random,random_robot_128,10,6,1,SimpleHill,0-0,0,77,43-23,43-32;43-29;51-21;43-18;36-19;42-26,43-32,92,8
random,random_robot_128,10,6,1,SimpleHill,0-0,0,78,43-32,46-26;49-30;38-38;52-28;38-24;43-35,49-30,91,-1
random,random_robot_128,10,6,1,SimpleHill,0-0,0,79,49-30,53-33;53-22;50-22;50-37;51-32;44-33,51-32,93,2
random,random_robot_128,10,6,1,SimpleHill,0-0,0,80,51-32,60-32;52-23;45-40;58-39;50-32;43-33,58-39,96,3
random,random_robot_128,10,6,1,SimpleHill,0-0,0,81,58-39,58-37;55-33;64-46;48-39;56-35;65-43,65-43,94,-2
random,random_robot_128,10,6,1,SimpleHill,0-0,0,82,65-43,65-51;62-39;69-34;67-44;70-50;59-42,59-42,97,3
random,random_robot_128,10,6,1,SimpleHill,0-0,0,83,59-42,68-39;55-49;62-44;57-48;65-41;63-39,55-49,99,2
random,random_robot_128,10,6,1,SimpleHill,0-0,0,84,55-49,56-43;47-53;57-42;61-41;58-47;51-53,47-53,99,0
random,random_robot_128,10,6,1,SimpleHill,0-0,0,85,47-53,41-54;38-55;47-56;54-56;56-53;47-47,47-47,99,0
random,random_robot_128,10,6,1,SimpleHill,0-0,0,86,47-47,40-45;41-48;56-51;42-46;48-46;45-45,45-45,99,0
random,random_robot_128,10,6,1,SimpleHill,0-0,0,87,45-45,42-54;54-43;49-48;44-44;51-48;48-38,48-38,97,-2
random,random_robot_128,10,6,1,SimpleHill,0-0,0,88,48-38,42-42;42-43;54-33;52-31;41-37;47-32,42-42,97,0
random,random_robot_128,10,6,1,SimpleHill,0-0,0,89,42-42,49-37;41-37;48-45;48-38;49-46;34-40,49-46,99,2
random,random_robot_128,10,6,1,SimpleHill,0-0,0,90,49-46,56-50;48-38;51-50;49-39;45-52;50-37,49-39,97,-2
random,random_robot_128,10,6,1,SimpleHill,0-0,0,91,49-39,44-41;51-42;53-33;53-36;55-45;52-42,53-36,95,-2
random,random_robot_128,10,6,1,SimpleHill,0-0,0,92,53-36,61-38;56-35;54-43;44-34;53-36;52-43,53-36,95,0
random,random_robot_128,10,6,1,SimpleHill,0-0,0,93,53-36,59-36;62-34;47-28;46-31;55-43;54-34,54-34,94,-1
random,random_robot_128,10,6,1,SimpleHill,0-0,0,94,54-34,58-35;53-40;57-37;62-33;55-25;55-31,55-31,92,-2
random,random_robot_128,10,6,1,SimpleHill,0-0,0,95,55-31,56-22;53-34;62-28;64-30;55-40;62-32,55-40,97,5
random,random_robot_128,10,6,1,SimpleHill,0-0,0,96,55-40,53-43;59-41;61-33;58-41;50-48;58-35,59-41,96,-1
random,random_robot_128,10,6,1,SimpleHill,0-0,0,97,59-41,58-42;65-45;52-43;63-43;62-45;66-38,52-43,98,2
random,random_robot_128,10,6,1,SimpleHill,0-0,0,98,52-43,56-52;51-46;53-40;59-39;54-35;49-49,56-52,99,1
random,random_robot_128,10,6,1,SimpleHill,0-0,0,99,56-52,54-45;54-57;61-44;59-50;62-59;49-56,61-44,96,-3
random,random_robot_128,10,6,1,SimpleHill,0-0,0,100,61-44,56-39;58-43;61-39;67-44;62-45;68-51,62-45,96,0
random,random_robot_128,10,6,1,SimpleHill,0-0,0,101,62-45,54-51;65-37;69-39;64-44;56-41;54-44,54-44,98,2
random,random_robot_128,10,6,1,SimpleHill,0-0,0,102,54-44,54-49;63-48;62-49;59-47;60-40;49-41,54-49,99,1
random,random_robot_128,10,6,1,SimpleHill,0-0,0,103,54-49,53-43;53-47;50-43;58-40;53-40;56-58,58-40,96,-3
random,random_robot_128,10,6,1,SimpleHill,0-0,0,104,58-40,61-32;52-46;63-42;52-33;67-43;49-43,63-42,95,-1
random,random_robot_128,10,6,1,SimpleHill,0-0,0,105,63-42,68-44;62-41;69-35;65-47;61-35;54-38,68-44,92,-3
random,random_robot_128,10,6,1,SimpleHill,0-0,0,106,68-44,60-42;69-49;62-46;62-49;60-45;68-36,62-46,96,4
random,random_robot_128,10,6,1,SimpleHill,0-0,0,107,62-46,64-50;61-47;64-46;54-46;59-47;59-40,54-46,99,3
random,random_robot_128,10,6,1,SimpleHill,0-0,0,108,54-46,56-43;60-41;49-39;48-41;55-37;54-39,48-41,98,-1
random,random_robot_128,10,6,1,SimpleHill,0-0,0,109,48-41,54-35;39-37;49-36;45-39;40-38;50-47,39-37,94,-4
random,random_robot_128,10,6,1,SimpleHill,0-0,0,110,39-37,47-33;35-35;34-45;43-33;37-39;40-35,40-35,93,-1
random,random_robot_128,10,6,1,SimpleHill,0-0,0,111,40-35,36-34;46-31;35-36;36-38;34-35;38-43,46-31,92,-1
random,random_robot_128,10,6,1,SimpleHill,0-0,0,112,46-31,51-37;54-37;50-24;37-35;44-32;45-22,44-32,92,0
random,random_robot_128,10,6,1,SimpleHill,0-0,0,113,44-32,40-33;38-28;54-32;44-35;48-26;37-33,37-33,90,-2
random,random_robot_128,10,6,1,SimpleHill,0-0,0,114,37-33,42-34;46-33;38-41;33-25;41-40;38-40,42-34,93,3
random,random_robot_128,10,6,1,SimpleHill,0-0,0,115,42-34,50-39;39-26;41-33;49-31;45-27;50-28,50-39,97,4
random,random_robot_128,10,6,1,SimpleHill,0-0,0,116,50-39,45-40;52-32;48-38;48-36;44-43;51-36,52-32,93,-4
random,random_robot_128,10,6,1,SimpleHill,0-0,0,117,52-32,55-29;50-31;45-35;59-29;48-27;54-23,50-31,92,-1
random,random_robot_128,10,6,1,SimpleHill,0-0,0,118,50-31,54-38;57-32;48-38;43-35;57-27;43-38,57-32,92,0
random,random_robot_128,10,6,1,SimpleHill,0-0,0,119,57-32,60-37;62-30;53-23;57-42;58-40;52-27,62-30,89,-3
random,random_robot_128,10,6,1,SimpleHill,0-0,0,120,62-30,67-22;56-31;64-34;55-25;54-36;60-38,54-36,95,6
random,random_robot_128,10,6,1,SimpleHill,0-0,0,121,54-36,50-38;47-42;50-30;55-37;47-29;62-40,47-42,98,3
random,random_robot_128,10,6,1,SimpleHill,0-0,0,122,47-42,41-47;54-42;48-50;45-43;50-46;44-51,45-43,98,0
random,random_robot_128,10,6,1,SimpleHill,0-0,0,123,45-43,40-50;42-35;43-37;43-34;51-50;53-37,43-37,95,-3
random,random_robot_128,10,6,1,SimpleHill,0-0,0,124,43-37,45-31;48-30;42-33;34-35;40-30;35-42,35-42,94,-1
random,random_robot_128,10,6,1,SimpleHill,0-0,0,125,35-42,35-34;32-42;35-33;30-36;35-44;33-43,30-36,88,-6
random,random_robot_128,10,6,1,SimpleHill,0-0,0,126,30-36,34-30;36-33;23-32;31-28;26-45;40-36,36-33,90,2
random,random_robot_128,10,6,1,SimpleHill,0-0,0,127,36-33,32-25;33-26;38-30;43-39;40-24;44-31,43-39,96,6
random,random_robot_128,10,6,1,SimpleHill,0-0,0,128,43-39,51-38;40-46;52-40;48-32;38-32;35-40,52-40,97,1
random,random_robot_128,10,6,1,SimpleHill,0-0,0,129,52-40,44-44;52-31;44-43;54-47;60-42;47-40,47-40,97,0
random,random_robot_128,10,6,1,SimpleHill,0-0,0,130,47-40,48-40;41-43;56-41;53-32;48-33;45-36,48-33,94,-3
random,random_robot_128,10,6,1,SimpleHill,0-0,0,131,48-33,43-38;45-37;42-39;48-38;44-34;56-33,42-39,96,2
random,random_robot_128,10,6,1,SimpleHill,0-0,0,132,42-39,35-39;46-31;50-36;35-40;43-34;37-41,35-40,93,-3
random,random_robot_128,10,6,1,SimpleHill,0-0,0,133,35-40,36-31;29-48;39-36;34-38;40-48;43-39,39-36,93,0
random,random_robot_128,10,6,1,SimpleHill,0-0,0,134,39-36,32-31;40-37;39-44;35-43;47-33;43-42,40-37,94,1
random,random_robot_128,10,6,1,SimpleHill,0-0,0,135,40-37,46-35;38-44;49-39;37-45;33-39;39-28,49-39,97,3
random,random_robot_128,10,6,1,SimpleHill,0-0,0,136,49-39,45-33;45-40;56-36;44-38;54-44;57-42,45-33,93,-4
random,random_robot_128,10,6,1,SimpleHill,0-0,0,137,45-33,49-33;36-34;45-38;40-26;53-30;36-31,45-38,96,3
random,random_robot_128,10,6,1,SimpleHill,0-0,0,138,45-38,40-46;41-30;50-41;48-36;40-38;50-35,50-41,98,2
random,random_robot_128,10,6,1,SimpleHill,0-0,0,139,50-41,48-36;53-33;50-37;54-45;43-44;53-41,43-44,98,0
random,random_robot_128,10,6,1,SimpleHill,0-0,0,140,43-44,40-52;47-51;36-39;37-40;42-51;47-53,36-39,93,-5
random,random_robot_128,10,6,1,SimpleHill,0-0,0,141,36-39,34-37;30-45;39-46;36-38;37-37;37-31,37-31,89,-4
random,random_robot_128,10,6,1,SimpleHill,0-0,0,142,37-31,44-37;42-34;35-34;30-30;39-22;35-39,44-37,95,6
random,random_robot_128,10,6,1,SimpleHill,0-0,0,143,44-37,45-32;36-43;39-44;44-29;35-41;41-29,39-44,96,1
random,random_robot_128,10,6,1,SimpleHill,0-0,0,144,39-44,39-40;32-38;35-46;43-42;42-41;40-51,39-40,95,-1
random,random_robot_128,10,6,1,SimpleHill,0-0,0,145,39-40,47-41;35-40;41-37;35-47;34-36;38-39,35-47,95,0
random,random_robot_128,10,6,1,SimpleHill,0-0,0,146,35-47,36-40;38-51;39-55;31-51;36-47;37-51,38-51,97,2
random,random_robot_128,10,6,1,SimpleHill,0-0,0,147,38-51,29-47;36-46;37-46;36-47;37-59;41-56,29-47,91,-6
random,random_robot_128,10,6,1,SimpleHill,0-0,0,148,29-47,27-53;30-55;21-46;26-42;32-54;36-41,21-46,82,-9
random,random_robot_128,10,6,1,SimpleHill,0-0,0,149,21-46,27-46;16-39;19-50;21-53;16-48;22-48,16-48,76,-6
random,random_robot_128,10,6,1,SimpleHill,0-0,0,150,16-48,22-45;11-54;21-48;24-47;7-50;12-45,11-54,69,-7
random,random_robot_128,10,6,1,SimpleHill,0-0,0,151,11-54,10-50;6-60;6-61;12-59;6-56;7-62,6-56,60,-9
random,random_robot_128,10,6,1,SimpleHill,0-0,0,152,6-56,9-51;0-52;8-62;6-47;0-64;5-62,8-62,61,1
random,random_robot_128,10,6,1,SimpleHill,0-0,0,153,8-62,5-64;10-62;6-60;11-70;2-69;9-69,2-69,46,-15
random,random_robot_128,10,6,1,SimpleHill,0-0,0,154,2-69,4-63;1-65;4-61;5-62;1-60;7-61,1-60,49,3
random,random_robot_128,10,6,1,SimpleHill,0-0,0,155,1-60,3-66;6-66;5-56;7-63;6-67;5-53,7-63,59,10
random,random_robot_128,10,6,1,SimpleHill,0-0,0,156,7-63,12-66;3-62;5-66;7-58;13-63;12-58,12-58,69,10
random,random_robot_128,10,6,1,SimpleHill,0-0,0,157,12-58,5-54;7-56;14-54;9-66;8-52;12-62,9-66,61,-8
random,random_robot_128,10,6,1,SimpleHill,0-0,0,158,9-66,16-60;2-69;7-63;3-62;16-62;5-59,3-62,52,-9
random,random_robot_128,10,6,1,SimpleHill,0-0,0,159,3-62,10-64;5-53;9-70;6-56;7-59;12-66,5-53,59,7
random,random_robot_128,10,6,1,SimpleHill,0-0,0,160,5-53,1-57;4-61;7-50;8-58;8-50;11-54,4-61,55,-4
random,random_robot_128,10,6,1,SimpleHill,0-0,0,161,4-61,11-58;2-64;6-53;13-64;10-59;7-53,13-64,68,13
random,random_robot_128,10,6,1,SimpleHill,0-0,0,162,13-64,14-65;10-66;18-64;20-68;18-65;14-62,18-64,75,7
random,random_robot_128,10,6,1,SimpleHill,0-0,0,163,18-64,24-66;25-57;13-61;17-68;25-61;20-69,13-61,70,-5
random,random_robot_128,10,6,1,SimpleHill,0-0,0,164,13-61,17-52;18-68;10-70;19-62;19-53;16-62,19-62,77,7
random,random_robot_128,10,6,1,SimpleHill,0-0,0,165,19-62,24-61;20-55;10-58;16-53;12-68;19-58,12-68,64,-13
random,random_robot_128,10,6,1,SimpleHill,0-0,0,166,12-68,14-67;21-66;8-64;8-66;5-61;11-63,8-66,59,-5
random,random_robot_128,10,6,1,SimpleHill,0-0,0,167,8-66,16-61;10-64;3-68;10-65;8-61;13-66,16-61,74,15
random,random_robot_128,10,6,1,SimpleHill,0-0,0,168,16-61,22-60;20-66;16-53;16-56;14-61;15-67,20-66,76,2
random,random_robot_128,10,6,1,SimpleHill,0-0,0,169,20-66,27-63;16-60;16-70;30-66;14-63;15-63,16-70,68,-8
random,random_robot_128,10,6,1,SimpleHill,0-0,0,170,16-70,15-69;18-66;23-65;8-66;18-68;22-70,23-65,80,12
random,random_robot_128,10,6,1,SimpleHill,0-0,0,171,23-65,26-56;19-61;27-67;27-63;31-60;22-66,27-67,83,3
random,random_robot_128,10,6,1,SimpleHill,0-0,0,172,27-67,30-65;25-65;24-61;21-69;30-63;29-65,30-65,87,4
random,random_robot_128,10,6,1,SimpleHill,0-0,0,173,30-65,27-65;31-68;26-62;26-69;21-64;25-61,26-69,81,-6
random,random_robot_128,10,6,1,SimpleHill,0-0,0,174,26-69,24-62;32-66;28-65;26-62;21-61;28-62,21-61,80,-1
random,random_robot_128,10,6,1,SimpleHill,0-0,0,175,21-61,25-53;13-66;21-52;22-69;23-70;13-56,13-66,67,-13
random,random_robot_128,10,6,1,SimpleHill,0-0,0,176,13-66,20-70;21-61;20-69;10-61;9-65;7-67,21-61,80,13
random,random_robot_128,10,6,1,SimpleHill,0-0,0,177,21-61,29-55;19-65;26-58;18-64;27-54;26-55,18-64,75,-5
random,random_robot_128,10,6,1,SimpleHill,0-0,0,178,18-64,23-58;20-65;18-55;13-65;21-67;24-58,23-58,84,9
random,random_robot_128,10,6,1,SimpleHill,0-0,0,179,23-58,17-54;29-65;18-53;26-55;25-64;23-51,29-65,86,2
random,random_robot_128,10,6,1,SimpleHill,0-0,0,180,29-65,29-59;36-68;30-59;22-61;35-66;22-62,29-59,89,3
random,random_robot_128,10,6,1,SimpleHill,0-0,0,181,29-59,22-61;30-59;21-60;33-65;33-50;27-64,33-50,94,5
random,random_robot_128,10,6,1,SimpleHill,0-0,0,182,33-50,39-49;32-45;40-57;24-48;34-49;28-52,34-49,94,0
random,random_robot_128,10,6,1,SimpleHill,0-0,0,183,34-49,41-55;36-40;27-47;43-48;36-51;29-44,36-40,94,0
random,random_robot_128,10,6,1,SimpleHill,0-0,0,184,36-40,40-34;43-36;45-44;34-43;28-45;42-45,34-43,93,-1
random,random_robot_128,10,6,1,SimpleHill,0-0,0,185,34-43,37-43;41-39;41-36;30-51;29-41;36-35,41-36,94,1
random,random_robot_128,10,6,1,SimpleHill,0-0,0,186,41-36,46-33;37-38;41-26;48-40;47-38;45-38,46-33,93,-1
random,random_robot_128,10,6,1,SimpleHill,0-0,0,187,46-33,53-37;42-27;50-32;39-32;56-33;52-34,50-32,93,0
random,random_robot_128,10,6,1,SimpleHill,0-0,0,188,50-32,46-27;44-24;42-37;45-33;57-32;58-33,46-27,89,-4
random,random_robot_128,10,6,1,SimpleHill,0-0,0,189,46-27,40-19;48-36;44-36;44-23;43-33;45-24,48-36,96,7
random,random_robot_128,10,6,1,SimpleHill,0-0,0,190,48-36,51-28;51-27;52-36;53-31;50-36;41-43,50-36,96,0
random,random_robot_128,10,6,1,SimpleHill,0-0,0,191,50-36,54-28;53-39;41-35;46-30;41-37;51-34,46-30,91,-5
random,random_robot_128,10,6,1,SimpleHill,0-0,0,192,46-30,46-34;45-28;53-30;41-32;43-34;40-25,40-25,85,-6
random,random_robot_128,10,6,1,SimpleHill,0-0,0,193,40-25,32-19;34-30;44-24;40-26;33-27;35-26,33-27,83,-2
random,random_robot_128,10,6,1,SimpleHill,0-0,0,194,33-27,31-28;35-33;35-20;29-34;38-30;36-30,38-30,89,6
random,random_robot_128,10,6,1,SimpleHill,0-0,0,195,38-30,47-28;47-34;34-36;40-35;38-23;40-21,40-35,93,4
random,random_robot_128,10,6,1,SimpleHill,0-0,0,196,40-35,43-44;34-30;39-26;40-34;31-33;48-40,43-44,98,5
random,random_robot_128,10,6,1,SimpleHill,0-0,0,197,43-44,42-39;36-37;35-43;44-42;52-48;47-45,36-37,92,-6
random,random_robot_128,10,6,1,SimpleHill,0-0,0,198,36-37,40-45;37-33;40-44;40-31;30-37;27-39,40-45,97,5
random,random_robot_128,10,6,1,SimpleHill,0-0,0,199,40-45,34-38;35-51;36-48;43-52;38-50;49-49,35-51,95,-2
